<?xml version="1.0" encoding="UTF-8" standalone="no"?>
<!DOCTYPE log SYSTEM "logger.dtd">
<log>
<record>
  <date>2023-11-13T15:34:06.997241300Z</date>
  <millis>1699889646997</millis>
  <nanos>241300</nanos>
  <sequence>0</sequence>
  <logger>ClubService</logger>
  <level>SEVERE</level>
  <class>pdp.uz.football.service.ClubServiceImpl</class>
  <method>deserialize</method>
  <thread>1</thread>
  <message> deserialize methoda xatolikga tushdi
</message>
</record>
</log>
нояб. 13, 2023 8:37:07 PM pdp.uz.football.service.ClubServiceImpl getById
INFO:  id boyicha olinish bajarildi

нояб. 13, 2023 8:37:30 PM pdp.uz.football.service.ClubServiceImpl add
INFO:  add method ishladi

нояб. 13, 2023 8:37:30 PM pdp.uz.football.service.ClubServiceImpl add
INFO:  add method ishladi

нояб. 13, 2023 8:37:30 PM pdp.uz.football.service.ClubServiceImpl add
INFO:  add method ishladi

нояб. 13, 2023 8:37:30 PM pdp.uz.football.service.ClubServiceImpl add
INFO:  add method ishladi

нояб. 13, 2023 8:37:30 PM pdp.uz.football.service.ClubServiceImpl add
INFO:  add method ishladi

нояб. 13, 2023 8:37:30 PM pdp.uz.football.service.ClubServiceImpl add
INFO:  add method ishladi

нояб. 13, 2023 8:37:30 PM pdp.uz.football.service.ClubServiceImpl add
INFO:  add method ishladi

нояб. 13, 2023 8:37:30 PM pdp.uz.football.service.ClubServiceImpl add
INFO:  add method ishladi

нояб. 13, 2023 8:37:30 PM pdp.uz.football.service.ClubServiceImpl add
INFO:  add method ishladi

нояб. 13, 2023 8:37:30 PM pdp.uz.football.service.ClubServiceImpl add
INFO:  add method ishladi

нояб. 13, 2023 8:37:30 PM pdp.uz.football.service.ClubServiceImpl add
INFO:  add method ishladi

нояб. 13, 2023 8:37:30 PM pdp.uz.football.service.ClubServiceImpl add
INFO:  add method ishladi

нояб. 13, 2023 8:37:30 PM pdp.uz.football.service.ClubServiceImpl add
INFO:  add method ishladi

нояб. 13, 2023 8:37:30 PM pdp.uz.football.service.ClubServiceImpl add
INFO:  add method ishladi

нояб. 13, 2023 8:37:30 PM pdp.uz.football.service.ClubServiceImpl add
INFO:  add method ishladi

нояб. 13, 2023 8:37:30 PM pdp.uz.football.service.ClubServiceImpl add
INFO:  add method ishladi

нояб. 13, 2023 8:37:30 PM pdp.uz.football.service.ClubServiceImpl add
INFO:  add method ishladi

нояб. 13, 2023 8:37:30 PM pdp.uz.football.service.ClubServiceImpl add
INFO:  add method ishladi

нояб. 13, 2023 8:37:30 PM pdp.uz.football.service.ClubServiceImpl add
INFO:  add method ishladi

нояб. 13, 2023 8:37:30 PM pdp.uz.football.service.ClubServiceImpl add
INFO:  add method ishladi

нояб. 13, 2023 8:37:30 PM pdp.uz.football.service.ClubServiceImpl add
INFO:  add method ishladi

нояб. 13, 2023 8:37:30 PM pdp.uz.football.service.ClubServiceImpl add
INFO:  add method ishladi

нояб. 13, 2023 8:37:30 PM pdp.uz.football.service.ClubServiceImpl add
INFO:  add method ishladi

нояб. 13, 2023 8:37:30 PM pdp.uz.football.service.ClubServiceImpl add
INFO:  add method ishladi

нояб. 13, 2023 8:37:30 PM pdp.uz.football.service.ClubServiceImpl add
INFO:  add method ishladi

нояб. 13, 2023 8:37:30 PM pdp.uz.football.service.ClubServiceImpl add
INFO:  add method ishladi

нояб. 13, 2023 8:37:30 PM pdp.uz.football.service.ClubServiceImpl add
INFO:  add method ishladi

нояб. 13, 2023 8:37:30 PM pdp.uz.football.service.ClubServiceImpl add
INFO:  add method ishladi

нояб. 13, 2023 8:37:30 PM pdp.uz.football.service.ClubServiceImpl add
INFO:  add method ishladi

нояб. 13, 2023 8:37:30 PM pdp.uz.football.service.ClubServiceImpl add
INFO:  add method ishladi

нояб. 13, 2023 8:37:30 PM pdp.uz.football.service.ClubServiceImpl add
INFO:  add method ishladi

нояб. 13, 2023 8:37:30 PM pdp.uz.football.service.ClubServiceImpl add
INFO:  add method ishladi

нояб. 13, 2023 8:37:30 PM pdp.uz.football.service.ClubServiceImpl add
INFO:  add method ishladi

нояб. 13, 2023 8:37:30 PM pdp.uz.football.service.ClubServiceImpl add
INFO:  add method ishladi

нояб. 13, 2023 8:37:30 PM pdp.uz.football.service.ClubServiceImpl add
INFO:  add method ishladi

нояб. 13, 2023 8:37:30 PM pdp.uz.football.service.ClubServiceImpl add
INFO:  add method ishladi

нояб. 13, 2023 8:37:30 PM pdp.uz.football.service.ClubServiceImpl add
INFO:  add method ishladi

нояб. 13, 2023 8:37:30 PM pdp.uz.football.service.ClubServiceImpl add
INFO:  add method ishladi

нояб. 13, 2023 8:37:30 PM pdp.uz.football.service.ClubServiceImpl add
INFO:  add method ishladi

нояб. 13, 2023 8:37:30 PM pdp.uz.football.service.ClubServiceImpl add
INFO:  add method ishladi

нояб. 13, 2023 8:37:30 PM pdp.uz.football.service.ClubServiceImpl add
INFO:  add method ishladi

нояб. 13, 2023 8:37:30 PM pdp.uz.football.service.ClubServiceImpl add
INFO:  add method ishladi

нояб. 13, 2023 8:37:30 PM pdp.uz.football.service.ClubServiceImpl add
INFO:  add method ishladi

нояб. 13, 2023 8:37:30 PM pdp.uz.football.service.ClubServiceImpl add
INFO:  add method ishladi

нояб. 13, 2023 8:37:30 PM pdp.uz.football.service.ClubServiceImpl add
INFO:  add method ishladi

нояб. 13, 2023 8:37:30 PM pdp.uz.football.service.ClubServiceImpl add
INFO:  add method ishladi

нояб. 13, 2023 8:37:30 PM pdp.uz.football.service.ClubServiceImpl add
INFO:  add method ishladi

нояб. 13, 2023 8:37:30 PM pdp.uz.football.service.ClubServiceImpl add
INFO:  add method ishladi

нояб. 13, 2023 8:37:30 PM pdp.uz.football.service.ClubServiceImpl add
INFO:  add method ishladi

нояб. 13, 2023 8:37:30 PM pdp.uz.football.service.ClubServiceImpl add
INFO:  add method ishladi

нояб. 13, 2023 8:37:30 PM pdp.uz.football.service.ClubServiceImpl add
INFO:  add method ishladi

нояб. 13, 2023 8:37:30 PM pdp.uz.football.service.ClubServiceImpl add
INFO:  add method ishladi

нояб. 13, 2023 8:37:30 PM pdp.uz.football.service.ClubServiceImpl add
INFO:  add method ishladi

нояб. 13, 2023 8:37:30 PM pdp.uz.football.service.ClubServiceImpl add
INFO:  add method ishladi

нояб. 13, 2023 8:37:30 PM pdp.uz.football.service.ClubServiceImpl add
INFO:  add method ishladi

нояб. 13, 2023 8:37:30 PM pdp.uz.football.service.ClubServiceImpl add
INFO:  add method ishladi

нояб. 13, 2023 8:37:30 PM pdp.uz.football.service.ClubServiceImpl add
INFO:  add method ishladi

нояб. 13, 2023 8:37:30 PM pdp.uz.football.service.ClubServiceImpl add
INFO:  add method ishladi

нояб. 13, 2023 8:37:30 PM pdp.uz.football.service.ClubServiceImpl add
INFO:  add method ishladi

нояб. 13, 2023 8:37:30 PM pdp.uz.football.service.ClubServiceImpl add
INFO:  add method ishladi

нояб. 13, 2023 8:37:30 PM pdp.uz.football.service.ClubServiceImpl add
INFO:  add method ishladi

нояб. 13, 2023 8:37:30 PM pdp.uz.football.service.ClubServiceImpl add
INFO:  add method ishladi

нояб. 13, 2023 8:37:30 PM pdp.uz.football.service.ClubServiceImpl add
INFO:  add method ishladi

нояб. 13, 2023 8:37:30 PM pdp.uz.football.service.ClubServiceImpl add
INFO:  add method ishladi

нояб. 13, 2023 8:37:30 PM pdp.uz.football.service.ClubServiceImpl add
INFO:  add method ishladi

нояб. 13, 2023 8:37:30 PM pdp.uz.football.service.ClubServiceImpl add
INFO:  add method ishladi

нояб. 13, 2023 8:37:30 PM pdp.uz.football.service.ClubServiceImpl add
INFO:  add method ishladi

нояб. 13, 2023 8:37:30 PM pdp.uz.football.service.ClubServiceImpl add
INFO:  add method ishladi

нояб. 13, 2023 8:37:30 PM pdp.uz.football.service.ClubServiceImpl add
INFO:  add method ishladi

нояб. 13, 2023 8:37:30 PM pdp.uz.football.service.ClubServiceImpl add
INFO:  add method ishladi

нояб. 13, 2023 8:37:30 PM pdp.uz.football.service.ClubServiceImpl add
INFO:  add method ishladi

нояб. 13, 2023 8:37:30 PM pdp.uz.football.service.ClubServiceImpl add
INFO:  add method ishladi

нояб. 13, 2023 8:37:30 PM pdp.uz.football.service.ClubServiceImpl add
INFO:  add method ishladi

нояб. 13, 2023 8:37:30 PM pdp.uz.football.service.ClubServiceImpl add
INFO:  add method ishladi

нояб. 13, 2023 8:37:30 PM pdp.uz.football.service.ClubServiceImpl add
INFO:  add method ishladi

нояб. 13, 2023 8:37:30 PM pdp.uz.football.service.ClubServiceImpl add
INFO:  add method ishladi

нояб. 13, 2023 8:37:30 PM pdp.uz.football.service.ClubServiceImpl add
INFO:  add method ishladi

нояб. 13, 2023 8:37:30 PM pdp.uz.football.service.ClubServiceImpl add
INFO:  add method ishladi

нояб. 13, 2023 8:37:30 PM pdp.uz.football.service.ClubServiceImpl add
INFO:  add method ishladi

нояб. 13, 2023 8:37:30 PM pdp.uz.football.service.ClubServiceImpl add
INFO:  add method ishladi

нояб. 13, 2023 8:37:30 PM pdp.uz.football.service.ClubServiceImpl add
INFO:  add method ishladi

нояб. 13, 2023 8:37:30 PM pdp.uz.football.service.ClubServiceImpl add
INFO:  add method ishladi

нояб. 13, 2023 8:37:30 PM pdp.uz.football.service.ClubServiceImpl add
INFO:  add method ishladi

нояб. 13, 2023 8:37:30 PM pdp.uz.football.service.ClubServiceImpl add
INFO:  add method ishladi

нояб. 13, 2023 8:37:30 PM pdp.uz.football.service.ClubServiceImpl add
INFO:  add method ishladi

нояб. 13, 2023 8:37:30 PM pdp.uz.football.service.ClubServiceImpl add
INFO:  add method ishladi

нояб. 13, 2023 8:37:30 PM pdp.uz.football.service.ClubServiceImpl add
INFO:  add method ishladi

нояб. 13, 2023 8:37:30 PM pdp.uz.football.service.ClubServiceImpl add
INFO:  add method ishladi

нояб. 13, 2023 8:37:30 PM pdp.uz.football.service.ClubServiceImpl add
INFO:  add method ishladi

нояб. 13, 2023 8:37:30 PM pdp.uz.football.service.ClubServiceImpl add
INFO:  add method ishladi

нояб. 13, 2023 8:37:30 PM pdp.uz.football.service.ClubServiceImpl add
INFO:  add method ishladi

нояб. 13, 2023 8:37:30 PM pdp.uz.football.service.ClubServiceImpl add
INFO:  add method ishladi

нояб. 13, 2023 8:37:30 PM pdp.uz.football.service.ClubServiceImpl add
INFO:  add method ishladi

нояб. 13, 2023 8:37:30 PM pdp.uz.football.service.ClubServiceImpl add
INFO:  add method ishladi

нояб. 13, 2023 8:37:30 PM pdp.uz.football.service.ClubServiceImpl add
INFO:  add method ishladi

нояб. 13, 2023 8:37:30 PM pdp.uz.football.service.ClubServiceImpl add
INFO:  add method ishladi

нояб. 13, 2023 8:37:30 PM pdp.uz.football.service.ClubServiceImpl add
INFO:  add method ishladi

нояб. 13, 2023 8:37:30 PM pdp.uz.football.service.ClubServiceImpl add
INFO:  add method ishladi

нояб. 13, 2023 8:37:30 PM pdp.uz.football.service.ClubServiceImpl add
INFO:  add method ishladi

нояб. 13, 2023 8:37:30 PM pdp.uz.football.service.ClubServiceImpl add
INFO:  add method ishladi

нояб. 13, 2023 8:37:30 PM pdp.uz.football.service.ClubServiceImpl add
INFO:  add method ishladi

нояб. 13, 2023 8:37:30 PM pdp.uz.football.service.ClubServiceImpl add
INFO:  add method ishladi

нояб. 13, 2023 8:37:30 PM pdp.uz.football.service.ClubServiceImpl add
INFO:  add method ishladi

нояб. 13, 2023 8:37:30 PM pdp.uz.football.service.ClubServiceImpl add
INFO:  add method ishladi

нояб. 13, 2023 8:37:30 PM pdp.uz.football.service.ClubServiceImpl add
INFO:  add method ishladi

нояб. 13, 2023 8:37:30 PM pdp.uz.football.service.ClubServiceImpl add
INFO:  add method ishladi

нояб. 13, 2023 8:37:30 PM pdp.uz.football.service.ClubServiceImpl add
INFO:  add method ishladi

нояб. 13, 2023 8:37:30 PM pdp.uz.football.service.ClubServiceImpl add
INFO:  add method ishladi

нояб. 13, 2023 8:37:30 PM pdp.uz.football.service.ClubServiceImpl add
INFO:  add method ishladi

нояб. 13, 2023 8:37:30 PM pdp.uz.football.service.ClubServiceImpl add
INFO:  add method ishladi

нояб. 13, 2023 8:37:30 PM pdp.uz.football.service.ClubServiceImpl add
INFO:  add method ishladi

нояб. 13, 2023 8:37:30 PM pdp.uz.football.service.ClubServiceImpl add
INFO:  add method ishladi

нояб. 13, 2023 8:37:30 PM pdp.uz.football.service.ClubServiceImpl add
INFO:  add method ishladi

нояб. 13, 2023 8:37:30 PM pdp.uz.football.service.ClubServiceImpl add
INFO:  add method ishladi

нояб. 13, 2023 8:37:30 PM pdp.uz.football.service.ClubServiceImpl add
INFO:  add method ishladi

нояб. 13, 2023 8:37:30 PM pdp.uz.football.service.ClubServiceImpl add
INFO:  add method ishladi

нояб. 13, 2023 8:37:30 PM pdp.uz.football.service.ClubServiceImpl add
INFO:  add method ishladi

нояб. 13, 2023 8:37:30 PM pdp.uz.football.service.ClubServiceImpl add
INFO:  add method ishladi

нояб. 13, 2023 8:37:30 PM pdp.uz.football.service.ClubServiceImpl add
INFO:  add method ishladi

нояб. 13, 2023 8:37:30 PM pdp.uz.football.service.ClubServiceImpl add
INFO:  add method ishladi

нояб. 13, 2023 8:37:30 PM pdp.uz.football.service.ClubServiceImpl add
INFO:  add method ishladi

нояб. 13, 2023 8:37:30 PM pdp.uz.football.service.ClubServiceImpl add
INFO:  add method ishladi

нояб. 13, 2023 8:37:30 PM pdp.uz.football.service.ClubServiceImpl add
INFO:  add method ishladi

нояб. 13, 2023 8:37:30 PM pdp.uz.football.service.ClubServiceImpl add
INFO:  add method ishladi

нояб. 13, 2023 8:37:30 PM pdp.uz.football.service.ClubServiceImpl add
INFO:  add method ishladi

нояб. 13, 2023 8:37:30 PM pdp.uz.football.service.ClubServiceImpl add
INFO:  add method ishladi

нояб. 13, 2023 8:37:30 PM pdp.uz.football.service.ClubServiceImpl add
INFO:  add method ishladi

нояб. 13, 2023 8:37:30 PM pdp.uz.football.service.ClubServiceImpl add
INFO:  add method ishladi

нояб. 13, 2023 8:37:30 PM pdp.uz.football.service.ClubServiceImpl add
INFO:  add method ishladi

нояб. 13, 2023 8:37:30 PM pdp.uz.football.service.ClubServiceImpl add
INFO:  add method ishladi

нояб. 13, 2023 8:37:30 PM pdp.uz.football.service.ClubServiceImpl add
INFO:  add method ishladi

нояб. 13, 2023 8:37:30 PM pdp.uz.football.service.ClubServiceImpl add
INFO:  add method ishladi

нояб. 13, 2023 8:37:30 PM pdp.uz.football.service.ClubServiceImpl add
INFO:  add method ishladi

нояб. 13, 2023 8:37:30 PM pdp.uz.football.service.ClubServiceImpl add
INFO:  add method ishladi

нояб. 13, 2023 8:37:30 PM pdp.uz.football.service.ClubServiceImpl add
INFO:  add method ishladi

нояб. 13, 2023 8:37:30 PM pdp.uz.football.service.ClubServiceImpl add
INFO:  add method ishladi

нояб. 13, 2023 8:37:30 PM pdp.uz.football.service.ClubServiceImpl add
INFO:  add method ishladi

нояб. 13, 2023 8:37:30 PM pdp.uz.football.service.ClubServiceImpl add
INFO:  add method ishladi

нояб. 13, 2023 8:37:30 PM pdp.uz.football.service.ClubServiceImpl add
INFO:  add method ishladi

нояб. 13, 2023 8:37:30 PM pdp.uz.football.service.ClubServiceImpl add
INFO:  add method ishladi

нояб. 13, 2023 8:37:30 PM pdp.uz.football.service.ClubServiceImpl add
INFO:  add method ishladi

нояб. 13, 2023 8:37:30 PM pdp.uz.football.service.ClubServiceImpl add
INFO:  add method ishladi

нояб. 13, 2023 8:37:30 PM pdp.uz.football.service.ClubServiceImpl add
INFO:  add method ishladi

нояб. 13, 2023 8:37:30 PM pdp.uz.football.service.ClubServiceImpl add
INFO:  add method ishladi

нояб. 13, 2023 8:37:30 PM pdp.uz.football.service.ClubServiceImpl add
INFO:  add method ishladi

нояб. 13, 2023 8:37:30 PM pdp.uz.football.service.ClubServiceImpl add
INFO:  add method ishladi

нояб. 13, 2023 8:37:30 PM pdp.uz.football.service.ClubServiceImpl add
INFO:  add method ishladi

нояб. 13, 2023 8:37:30 PM pdp.uz.football.service.ClubServiceImpl add
INFO:  add method ishladi

нояб. 13, 2023 8:37:30 PM pdp.uz.football.service.ClubServiceImpl add
INFO:  add method ishladi

нояб. 13, 2023 8:37:30 PM pdp.uz.football.service.ClubServiceImpl add
INFO:  add method ishladi

нояб. 13, 2023 8:37:30 PM pdp.uz.football.service.ClubServiceImpl add
INFO:  add method ishladi

нояб. 13, 2023 8:37:30 PM pdp.uz.football.service.ClubServiceImpl add
INFO:  add method ishladi

нояб. 13, 2023 8:37:30 PM pdp.uz.football.service.ClubServiceImpl add
INFO:  add method ishladi

нояб. 13, 2023 8:37:30 PM pdp.uz.football.service.ClubServiceImpl add
INFO:  add method ishladi

нояб. 13, 2023 8:37:30 PM pdp.uz.football.service.ClubServiceImpl add
INFO:  add method ishladi

нояб. 13, 2023 8:37:30 PM pdp.uz.football.service.ClubServiceImpl add
INFO:  add method ishladi

нояб. 13, 2023 8:37:30 PM pdp.uz.football.service.ClubServiceImpl add
INFO:  add method ishladi

нояб. 13, 2023 8:37:30 PM pdp.uz.football.service.ClubServiceImpl add
INFO:  add method ishladi

нояб. 13, 2023 8:37:30 PM pdp.uz.football.service.ClubServiceImpl add
INFO:  add method ishladi

нояб. 13, 2023 8:37:30 PM pdp.uz.football.service.ClubServiceImpl add
INFO:  add method ishladi

нояб. 13, 2023 8:37:30 PM pdp.uz.football.service.ClubServiceImpl add
INFO:  add method ishladi

нояб. 13, 2023 8:37:30 PM pdp.uz.football.service.ClubServiceImpl add
INFO:  add method ishladi

нояб. 13, 2023 8:37:30 PM pdp.uz.football.service.ClubServiceImpl add
INFO:  add method ishladi

нояб. 13, 2023 8:37:30 PM pdp.uz.football.service.ClubServiceImpl add
INFO:  add method ishladi

нояб. 13, 2023 8:37:30 PM pdp.uz.football.service.ClubServiceImpl add
INFO:  add method ishladi

нояб. 13, 2023 8:37:30 PM pdp.uz.football.service.ClubServiceImpl add
INFO:  add method ishladi

нояб. 13, 2023 8:37:30 PM pdp.uz.football.service.ClubServiceImpl add
INFO:  add method ishladi

нояб. 13, 2023 8:37:30 PM pdp.uz.football.service.ClubServiceImpl add
INFO:  add method ishladi

нояб. 13, 2023 8:37:30 PM pdp.uz.football.service.ClubServiceImpl add
INFO:  add method ishladi

нояб. 13, 2023 8:37:30 PM pdp.uz.football.service.ClubServiceImpl add
INFO:  add method ishladi

нояб. 13, 2023 8:37:30 PM pdp.uz.football.service.ClubServiceImpl add
INFO:  add method ishladi

нояб. 13, 2023 8:37:30 PM pdp.uz.football.service.ClubServiceImpl add
INFO:  add method ishladi

нояб. 13, 2023 8:37:30 PM pdp.uz.football.service.ClubServiceImpl add
INFO:  add method ishladi

нояб. 13, 2023 8:37:30 PM pdp.uz.football.service.ClubServiceImpl add
INFO:  add method ishladi

нояб. 13, 2023 8:37:30 PM pdp.uz.football.service.ClubServiceImpl add
INFO:  add method ishladi

нояб. 13, 2023 8:37:30 PM pdp.uz.football.service.ClubServiceImpl add
INFO:  add method ishladi

нояб. 13, 2023 8:37:30 PM pdp.uz.football.service.ClubServiceImpl add
INFO:  add method ishladi

нояб. 13, 2023 8:37:30 PM pdp.uz.football.service.ClubServiceImpl add
INFO:  add method ishladi

нояб. 13, 2023 8:37:30 PM pdp.uz.football.service.ClubServiceImpl add
INFO:  add method ishladi

нояб. 13, 2023 8:37:30 PM pdp.uz.football.service.ClubServiceImpl add
INFO:  add method ishladi

нояб. 13, 2023 8:37:30 PM pdp.uz.football.service.ClubServiceImpl add
INFO:  add method ishladi

нояб. 13, 2023 8:37:30 PM pdp.uz.football.service.ClubServiceImpl add
INFO:  add method ishladi

нояб. 13, 2023 8:37:30 PM pdp.uz.football.service.ClubServiceImpl add
INFO:  add method ishladi

нояб. 13, 2023 8:37:30 PM pdp.uz.football.service.ClubServiceImpl add
INFO:  add method ishladi

нояб. 13, 2023 8:37:30 PM pdp.uz.football.service.ClubServiceImpl add
INFO:  add method ishladi

нояб. 13, 2023 8:37:30 PM pdp.uz.football.service.ClubServiceImpl add
INFO:  add method ishladi

нояб. 13, 2023 8:37:30 PM pdp.uz.football.service.ClubServiceImpl add
INFO:  add method ishladi

нояб. 13, 2023 8:37:30 PM pdp.uz.football.service.ClubServiceImpl add
INFO:  add method ishladi

нояб. 13, 2023 8:37:30 PM pdp.uz.football.service.ClubServiceImpl add
INFO:  add method ishladi

нояб. 13, 2023 8:37:30 PM pdp.uz.football.service.ClubServiceImpl add
INFO:  add method ishladi

нояб. 13, 2023 8:37:30 PM pdp.uz.football.service.ClubServiceImpl add
INFO:  add method ishladi

нояб. 13, 2023 8:37:30 PM pdp.uz.football.service.ClubServiceImpl add
INFO:  add method ishladi

нояб. 13, 2023 8:37:30 PM pdp.uz.football.service.ClubServiceImpl add
INFO:  add method ishladi

нояб. 13, 2023 8:37:30 PM pdp.uz.football.service.ClubServiceImpl add
INFO:  add method ishladi

нояб. 13, 2023 8:37:30 PM pdp.uz.football.service.ClubServiceImpl add
INFO:  add method ishladi

нояб. 13, 2023 8:37:30 PM pdp.uz.football.service.ClubServiceImpl add
INFO:  add method ishladi

нояб. 13, 2023 8:37:30 PM pdp.uz.football.service.ClubServiceImpl add
INFO:  add method ishladi

нояб. 13, 2023 8:37:30 PM pdp.uz.football.service.ClubServiceImpl add
INFO:  add method ishladi

нояб. 13, 2023 8:37:30 PM pdp.uz.football.service.ClubServiceImpl add
INFO:  add method ishladi

нояб. 13, 2023 8:37:30 PM pdp.uz.football.service.ClubServiceImpl add
INFO:  add method ishladi

нояб. 13, 2023 8:37:30 PM pdp.uz.football.service.ClubServiceImpl add
INFO:  add method ishladi

нояб. 13, 2023 8:37:30 PM pdp.uz.football.service.ClubServiceImpl add
INFO:  add method ishladi

нояб. 13, 2023 8:37:30 PM pdp.uz.football.service.ClubServiceImpl add
INFO:  add method ishladi

нояб. 13, 2023 8:37:30 PM pdp.uz.football.service.ClubServiceImpl add
INFO:  add method ishladi

нояб. 13, 2023 8:37:30 PM pdp.uz.football.service.ClubServiceImpl add
INFO:  add method ishladi

нояб. 13, 2023 8:37:30 PM pdp.uz.football.service.ClubServiceImpl add
INFO:  add method ishladi

нояб. 13, 2023 8:37:30 PM pdp.uz.football.service.ClubServiceImpl add
INFO:  add method ishladi

нояб. 13, 2023 8:37:30 PM pdp.uz.football.service.ClubServiceImpl add
INFO:  add method ishladi

нояб. 13, 2023 8:37:30 PM pdp.uz.football.service.ClubServiceImpl add
INFO:  add method ishladi

нояб. 13, 2023 8:37:30 PM pdp.uz.football.service.ClubServiceImpl add
INFO:  add method ishladi

нояб. 13, 2023 8:37:30 PM pdp.uz.football.service.ClubServiceImpl add
INFO:  add method ishladi

нояб. 13, 2023 8:37:30 PM pdp.uz.football.service.ClubServiceImpl add
INFO:  add method ishladi

нояб. 13, 2023 8:37:30 PM pdp.uz.football.service.ClubServiceImpl add
INFO:  add method ishladi

нояб. 13, 2023 8:37:30 PM pdp.uz.football.service.ClubServiceImpl add
INFO:  add method ishladi

нояб. 13, 2023 8:37:30 PM pdp.uz.football.service.ClubServiceImpl add
INFO:  add method ishladi

нояб. 13, 2023 8:37:30 PM pdp.uz.football.service.ClubServiceImpl add
INFO:  add method ishladi

нояб. 13, 2023 8:37:30 PM pdp.uz.football.service.ClubServiceImpl add
INFO:  add method ishladi

нояб. 13, 2023 8:37:30 PM pdp.uz.football.service.ClubServiceImpl add
INFO:  add method ishladi

нояб. 13, 2023 8:37:30 PM pdp.uz.football.service.ClubServiceImpl add
INFO:  add method ishladi

нояб. 13, 2023 8:37:30 PM pdp.uz.football.service.ClubServiceImpl add
INFO:  add method ishladi

нояб. 13, 2023 8:37:31 PM pdp.uz.football.service.ClubServiceImpl add
INFO:  add method ishladi

нояб. 13, 2023 8:37:31 PM pdp.uz.football.service.ClubServiceImpl add
INFO:  add method ishladi

нояб. 13, 2023 8:37:31 PM pdp.uz.football.service.ClubServiceImpl add
INFO:  add method ishladi

нояб. 13, 2023 8:37:31 PM pdp.uz.football.service.ClubServiceImpl add
INFO:  add method ishladi

нояб. 13, 2023 8:37:31 PM pdp.uz.football.service.ClubServiceImpl add
INFO:  add method ishladi

нояб. 13, 2023 8:37:31 PM pdp.uz.football.service.ClubServiceImpl add
INFO:  add method ishladi

нояб. 13, 2023 8:37:31 PM pdp.uz.football.service.ClubServiceImpl add
INFO:  add method ishladi

нояб. 13, 2023 8:37:31 PM pdp.uz.football.service.ClubServiceImpl add
INFO:  add method ishladi

нояб. 13, 2023 8:37:31 PM pdp.uz.football.service.ClubServiceImpl add
INFO:  add method ishladi

нояб. 13, 2023 8:37:31 PM pdp.uz.football.service.ClubServiceImpl add
INFO:  add method ishladi

нояб. 13, 2023 8:37:31 PM pdp.uz.football.service.ClubServiceImpl add
INFO:  add method ishladi

нояб. 13, 2023 8:37:31 PM pdp.uz.football.service.ClubServiceImpl add
INFO:  add method ishladi

нояб. 13, 2023 8:37:31 PM pdp.uz.football.service.ClubServiceImpl add
INFO:  add method ishladi

нояб. 13, 2023 8:37:31 PM pdp.uz.football.service.ClubServiceImpl add
INFO:  add method ishladi

нояб. 13, 2023 8:37:31 PM pdp.uz.football.service.ClubServiceImpl add
INFO:  add method ishladi

нояб. 13, 2023 8:37:31 PM pdp.uz.football.service.ClubServiceImpl add
INFO:  add method ishladi

нояб. 13, 2023 8:37:31 PM pdp.uz.football.service.ClubServiceImpl add
INFO:  add method ishladi

нояб. 13, 2023 8:37:31 PM pdp.uz.football.service.ClubServiceImpl add
INFO:  add method ishladi

нояб. 13, 2023 8:37:31 PM pdp.uz.football.service.ClubServiceImpl add
INFO:  add method ishladi

нояб. 13, 2023 8:37:31 PM pdp.uz.football.service.ClubServiceImpl add
INFO:  add method ishladi

нояб. 13, 2023 8:37:31 PM pdp.uz.football.service.ClubServiceImpl add
INFO:  add method ishladi

нояб. 13, 2023 8:37:31 PM pdp.uz.football.service.ClubServiceImpl add
INFO:  add method ishladi

нояб. 13, 2023 8:37:31 PM pdp.uz.football.service.ClubServiceImpl add
INFO:  add method ishladi

нояб. 13, 2023 8:37:31 PM pdp.uz.football.service.ClubServiceImpl add
INFO:  add method ishladi

нояб. 13, 2023 8:37:31 PM pdp.uz.football.service.ClubServiceImpl add
INFO:  add method ishladi

нояб. 13, 2023 8:37:31 PM pdp.uz.football.service.ClubServiceImpl add
INFO:  add method ishladi

нояб. 13, 2023 8:37:31 PM pdp.uz.football.service.ClubServiceImpl add
INFO:  add method ishladi

нояб. 13, 2023 8:37:31 PM pdp.uz.football.service.ClubServiceImpl add
INFO:  add method ishladi

нояб. 13, 2023 8:37:31 PM pdp.uz.football.service.ClubServiceImpl add
INFO:  add method ishladi

нояб. 13, 2023 8:37:31 PM pdp.uz.football.service.ClubServiceImpl add
INFO:  add method ishladi

нояб. 13, 2023 8:37:31 PM pdp.uz.football.service.ClubServiceImpl add
INFO:  add method ishladi

нояб. 13, 2023 8:37:31 PM pdp.uz.football.service.ClubServiceImpl add
INFO:  add method ishladi

нояб. 13, 2023 8:37:31 PM pdp.uz.football.service.ClubServiceImpl add
INFO:  add method ishladi

нояб. 13, 2023 8:37:31 PM pdp.uz.football.service.ClubServiceImpl add
INFO:  add method ishladi

нояб. 13, 2023 8:37:31 PM pdp.uz.football.service.ClubServiceImpl add
INFO:  add method ishladi

нояб. 13, 2023 8:37:31 PM pdp.uz.football.service.ClubServiceImpl add
INFO:  add method ishladi

нояб. 13, 2023 8:37:31 PM pdp.uz.football.service.ClubServiceImpl add
INFO:  add method ishladi

нояб. 13, 2023 8:37:31 PM pdp.uz.football.service.ClubServiceImpl add
INFO:  add method ishladi

нояб. 13, 2023 8:37:31 PM pdp.uz.football.service.ClubServiceImpl add
INFO:  add method ishladi

нояб. 13, 2023 8:37:31 PM pdp.uz.football.service.ClubServiceImpl add
INFO:  add method ishladi

нояб. 13, 2023 8:37:31 PM pdp.uz.football.service.ClubServiceImpl add
INFO:  add method ishladi

нояб. 13, 2023 8:37:31 PM pdp.uz.football.service.ClubServiceImpl add
INFO:  add method ishladi

нояб. 13, 2023 8:37:31 PM pdp.uz.football.service.ClubServiceImpl add
INFO:  add method ishladi

нояб. 13, 2023 8:37:31 PM pdp.uz.football.service.ClubServiceImpl add
INFO:  add method ishladi

нояб. 13, 2023 8:37:31 PM pdp.uz.football.service.ClubServiceImpl add
INFO:  add method ishladi

нояб. 13, 2023 8:37:31 PM pdp.uz.football.service.ClubServiceImpl add
INFO:  add method ishladi

нояб. 13, 2023 8:37:31 PM pdp.uz.football.service.ClubServiceImpl add
INFO:  add method ishladi

нояб. 13, 2023 8:37:31 PM pdp.uz.football.service.ClubServiceImpl add
INFO:  add method ishladi

нояб. 13, 2023 8:37:31 PM pdp.uz.football.service.ClubServiceImpl add
INFO:  add method ishladi

нояб. 13, 2023 8:37:31 PM pdp.uz.football.service.ClubServiceImpl add
INFO:  add method ishladi

нояб. 13, 2023 8:37:31 PM pdp.uz.football.service.ClubServiceImpl add
INFO:  add method ishladi

нояб. 13, 2023 8:37:31 PM pdp.uz.football.service.ClubServiceImpl add
INFO:  add method ishladi

нояб. 13, 2023 8:37:31 PM pdp.uz.football.service.ClubServiceImpl add
INFO:  add method ishladi

нояб. 13, 2023 8:37:31 PM pdp.uz.football.service.ClubServiceImpl add
INFO:  add method ishladi

нояб. 13, 2023 8:37:31 PM pdp.uz.football.service.ClubServiceImpl add
INFO:  add method ishladi

нояб. 13, 2023 8:37:31 PM pdp.uz.football.service.ClubServiceImpl add
INFO:  add method ishladi

нояб. 13, 2023 8:37:31 PM pdp.uz.football.service.ClubServiceImpl add
INFO:  add method ishladi

нояб. 13, 2023 8:37:31 PM pdp.uz.football.service.ClubServiceImpl add
INFO:  add method ishladi

нояб. 13, 2023 8:37:31 PM pdp.uz.football.service.ClubServiceImpl add
INFO:  add method ishladi

нояб. 13, 2023 8:37:31 PM pdp.uz.football.service.ClubServiceImpl add
INFO:  add method ishladi

нояб. 13, 2023 8:37:31 PM pdp.uz.football.service.ClubServiceImpl add
INFO:  add method ishladi

нояб. 13, 2023 8:37:31 PM pdp.uz.football.service.ClubServiceImpl add
INFO:  add method ishladi

нояб. 13, 2023 8:37:31 PM pdp.uz.football.service.ClubServiceImpl add
INFO:  add method ishladi

нояб. 13, 2023 8:37:31 PM pdp.uz.football.service.ClubServiceImpl add
INFO:  add method ishladi

нояб. 13, 2023 8:37:31 PM pdp.uz.football.service.ClubServiceImpl add
INFO:  add method ishladi

нояб. 13, 2023 8:37:31 PM pdp.uz.football.service.ClubServiceImpl add
INFO:  add method ishladi

нояб. 13, 2023 8:37:31 PM pdp.uz.football.service.ClubServiceImpl add
INFO:  add method ishladi

нояб. 13, 2023 8:37:31 PM pdp.uz.football.service.ClubServiceImpl add
INFO:  add method ishladi

нояб. 13, 2023 8:37:31 PM pdp.uz.football.service.ClubServiceImpl add
INFO:  add method ishladi

нояб. 13, 2023 8:37:31 PM pdp.uz.football.service.ClubServiceImpl add
INFO:  add method ishladi

нояб. 13, 2023 8:37:31 PM pdp.uz.football.service.ClubServiceImpl add
INFO:  add method ishladi

нояб. 13, 2023 8:37:31 PM pdp.uz.football.service.ClubServiceImpl add
INFO:  add method ishladi

нояб. 13, 2023 8:37:31 PM pdp.uz.football.service.ClubServiceImpl add
INFO:  add method ishladi

нояб. 13, 2023 8:37:31 PM pdp.uz.football.service.ClubServiceImpl add
INFO:  add method ishladi

нояб. 13, 2023 8:37:31 PM pdp.uz.football.service.ClubServiceImpl add
INFO:  add method ishladi

нояб. 13, 2023 8:37:31 PM pdp.uz.football.service.ClubServiceImpl add
INFO:  add method ishladi

нояб. 13, 2023 8:37:31 PM pdp.uz.football.service.ClubServiceImpl add
INFO:  add method ishladi

нояб. 13, 2023 8:37:31 PM pdp.uz.football.service.ClubServiceImpl add
INFO:  add method ishladi

нояб. 13, 2023 8:37:31 PM pdp.uz.football.service.ClubServiceImpl add
INFO:  add method ishladi

нояб. 13, 2023 8:37:31 PM pdp.uz.football.service.ClubServiceImpl add
INFO:  add method ishladi

нояб. 13, 2023 8:37:31 PM pdp.uz.football.service.ClubServiceImpl add
INFO:  add method ishladi

нояб. 13, 2023 8:37:31 PM pdp.uz.football.service.ClubServiceImpl add
INFO:  add method ishladi

нояб. 13, 2023 8:37:31 PM pdp.uz.football.service.ClubServiceImpl add
INFO:  add method ishladi

нояб. 13, 2023 8:37:31 PM pdp.uz.football.service.ClubServiceImpl add
INFO:  add method ishladi

нояб. 13, 2023 8:37:31 PM pdp.uz.football.service.ClubServiceImpl add
INFO:  add method ishladi

нояб. 13, 2023 8:37:31 PM pdp.uz.football.service.ClubServiceImpl add
INFO:  add method ishladi

нояб. 13, 2023 8:37:31 PM pdp.uz.football.service.ClubServiceImpl add
INFO:  add method ishladi

нояб. 13, 2023 8:37:31 PM pdp.uz.football.service.ClubServiceImpl add
INFO:  add method ishladi

нояб. 13, 2023 8:37:31 PM pdp.uz.football.service.ClubServiceImpl add
INFO:  add method ishladi

нояб. 13, 2023 8:37:31 PM pdp.uz.football.service.ClubServiceImpl add
INFO:  add method ishladi

нояб. 13, 2023 8:37:31 PM pdp.uz.football.service.ClubServiceImpl add
INFO:  add method ishladi

нояб. 13, 2023 8:37:31 PM pdp.uz.football.service.ClubServiceImpl add
INFO:  add method ishladi

нояб. 13, 2023 8:37:31 PM pdp.uz.football.service.ClubServiceImpl add
INFO:  add method ishladi

нояб. 13, 2023 8:37:31 PM pdp.uz.football.service.ClubServiceImpl add
INFO:  add method ishladi

нояб. 13, 2023 8:37:31 PM pdp.uz.football.service.ClubServiceImpl add
INFO:  add method ishladi

нояб. 13, 2023 8:37:31 PM pdp.uz.football.service.ClubServiceImpl add
INFO:  add method ishladi

нояб. 13, 2023 8:37:31 PM pdp.uz.football.service.ClubServiceImpl add
INFO:  add method ishladi

нояб. 13, 2023 8:37:31 PM pdp.uz.football.service.ClubServiceImpl add
INFO:  add method ishladi

нояб. 13, 2023 8:37:31 PM pdp.uz.football.service.ClubServiceImpl add
INFO:  add method ishladi

нояб. 13, 2023 8:37:31 PM pdp.uz.football.service.ClubServiceImpl add
INFO:  add method ishladi

нояб. 13, 2023 8:37:31 PM pdp.uz.football.service.ClubServiceImpl add
INFO:  add method ishladi

нояб. 13, 2023 8:37:31 PM pdp.uz.football.service.ClubServiceImpl add
INFO:  add method ishladi

нояб. 13, 2023 8:37:31 PM pdp.uz.football.service.ClubServiceImpl add
INFO:  add method ishladi

нояб. 13, 2023 8:37:31 PM pdp.uz.football.service.ClubServiceImpl add
INFO:  add method ishladi

нояб. 13, 2023 8:37:31 PM pdp.uz.football.service.ClubServiceImpl add
INFO:  add method ishladi

нояб. 13, 2023 8:37:31 PM pdp.uz.football.service.ClubServiceImpl add
INFO:  add method ishladi

нояб. 13, 2023 8:37:31 PM pdp.uz.football.service.ClubServiceImpl add
INFO:  add method ishladi

нояб. 13, 2023 8:37:31 PM pdp.uz.football.service.ClubServiceImpl add
INFO:  add method ishladi

нояб. 13, 2023 8:37:31 PM pdp.uz.football.service.ClubServiceImpl add
INFO:  add method ishladi

нояб. 13, 2023 8:37:31 PM pdp.uz.football.service.ClubServiceImpl add
INFO:  add method ishladi

нояб. 13, 2023 8:37:31 PM pdp.uz.football.service.ClubServiceImpl add
INFO:  add method ishladi

нояб. 13, 2023 8:37:31 PM pdp.uz.football.service.ClubServiceImpl add
INFO:  add method ishladi

нояб. 13, 2023 8:37:31 PM pdp.uz.football.service.ClubServiceImpl add
INFO:  add method ishladi

нояб. 13, 2023 8:37:31 PM pdp.uz.football.service.ClubServiceImpl add
INFO:  add method ishladi

нояб. 13, 2023 8:37:31 PM pdp.uz.football.service.ClubServiceImpl add
INFO:  add method ishladi

нояб. 13, 2023 8:37:31 PM pdp.uz.football.service.ClubServiceImpl add
INFO:  add method ishladi

нояб. 13, 2023 8:37:31 PM pdp.uz.football.service.ClubServiceImpl add
INFO:  add method ishladi

нояб. 13, 2023 8:37:31 PM pdp.uz.football.service.ClubServiceImpl add
INFO:  add method ishladi

нояб. 13, 2023 8:37:31 PM pdp.uz.football.service.ClubServiceImpl add
INFO:  add method ishladi

нояб. 13, 2023 8:37:31 PM pdp.uz.football.service.ClubServiceImpl add
INFO:  add method ishladi

нояб. 13, 2023 8:37:31 PM pdp.uz.football.service.ClubServiceImpl add
INFO:  add method ishladi

нояб. 13, 2023 8:37:31 PM pdp.uz.football.service.ClubServiceImpl add
INFO:  add method ishladi

нояб. 13, 2023 8:37:31 PM pdp.uz.football.service.ClubServiceImpl add
INFO:  add method ishladi

нояб. 13, 2023 8:37:31 PM pdp.uz.football.service.ClubServiceImpl add
INFO:  add method ishladi

нояб. 13, 2023 8:37:31 PM pdp.uz.football.service.ClubServiceImpl add
INFO:  add method ishladi

нояб. 13, 2023 8:37:31 PM pdp.uz.football.service.ClubServiceImpl add
INFO:  add method ishladi

нояб. 13, 2023 8:37:31 PM pdp.uz.football.service.ClubServiceImpl add
INFO:  add method ishladi

нояб. 13, 2023 8:37:31 PM pdp.uz.football.service.ClubServiceImpl add
INFO:  add method ishladi

нояб. 13, 2023 8:37:31 PM pdp.uz.football.service.ClubServiceImpl add
INFO:  add method ishladi

нояб. 13, 2023 8:37:31 PM pdp.uz.football.service.ClubServiceImpl add
INFO:  add method ishladi

нояб. 13, 2023 8:37:31 PM pdp.uz.football.service.ClubServiceImpl add
INFO:  add method ishladi

нояб. 13, 2023 8:37:31 PM pdp.uz.football.service.ClubServiceImpl add
INFO:  add method ishladi

нояб. 13, 2023 8:37:31 PM pdp.uz.football.service.ClubServiceImpl add
INFO:  add method ishladi

нояб. 13, 2023 8:37:31 PM pdp.uz.football.service.ClubServiceImpl add
INFO:  add method ishladi

нояб. 13, 2023 8:37:31 PM pdp.uz.football.service.ClubServiceImpl add
INFO:  add method ishladi

нояб. 13, 2023 8:37:31 PM pdp.uz.football.service.ClubServiceImpl add
INFO:  add method ishladi

нояб. 13, 2023 8:37:31 PM pdp.uz.football.service.ClubServiceImpl add
INFO:  add method ishladi

нояб. 13, 2023 8:37:31 PM pdp.uz.football.service.ClubServiceImpl add
INFO:  add method ishladi

нояб. 13, 2023 8:37:31 PM pdp.uz.football.service.ClubServiceImpl add
INFO:  add method ishladi

нояб. 13, 2023 8:37:31 PM pdp.uz.football.service.ClubServiceImpl add
INFO:  add method ishladi

нояб. 13, 2023 8:37:31 PM pdp.uz.football.service.ClubServiceImpl add
INFO:  add method ishladi

нояб. 13, 2023 8:37:31 PM pdp.uz.football.service.ClubServiceImpl add
INFO:  add method ishladi

нояб. 13, 2023 8:37:31 PM pdp.uz.football.service.ClubServiceImpl add
INFO:  add method ishladi

нояб. 13, 2023 8:37:31 PM pdp.uz.football.service.ClubServiceImpl add
INFO:  add method ishladi

нояб. 13, 2023 8:37:31 PM pdp.uz.football.service.ClubServiceImpl add
INFO:  add method ishladi

нояб. 13, 2023 8:37:31 PM pdp.uz.football.service.ClubServiceImpl add
INFO:  add method ishladi

нояб. 13, 2023 8:37:31 PM pdp.uz.football.service.ClubServiceImpl add
INFO:  add method ishladi

нояб. 13, 2023 8:37:31 PM pdp.uz.football.service.ClubServiceImpl add
INFO:  add method ishladi

нояб. 13, 2023 8:37:31 PM pdp.uz.football.service.ClubServiceImpl add
INFO:  add method ishladi

нояб. 13, 2023 8:37:31 PM pdp.uz.football.service.ClubServiceImpl add
INFO:  add method ishladi

нояб. 13, 2023 8:37:31 PM pdp.uz.football.service.ClubServiceImpl add
INFO:  add method ishladi

нояб. 13, 2023 8:37:31 PM pdp.uz.football.service.ClubServiceImpl add
INFO:  add method ishladi

нояб. 13, 2023 8:37:31 PM pdp.uz.football.service.ClubServiceImpl add
INFO:  add method ishladi

нояб. 13, 2023 8:37:31 PM pdp.uz.football.service.ClubServiceImpl add
INFO:  add method ishladi

нояб. 13, 2023 8:37:31 PM pdp.uz.football.service.ClubServiceImpl add
INFO:  add method ishladi

нояб. 13, 2023 8:37:31 PM pdp.uz.football.service.ClubServiceImpl add
INFO:  add method ishladi

нояб. 13, 2023 8:37:31 PM pdp.uz.football.service.ClubServiceImpl add
INFO:  add method ishladi

нояб. 13, 2023 8:37:31 PM pdp.uz.football.service.ClubServiceImpl add
INFO:  add method ishladi

нояб. 13, 2023 8:37:31 PM pdp.uz.football.service.ClubServiceImpl add
INFO:  add method ishladi

нояб. 13, 2023 8:37:31 PM pdp.uz.football.service.ClubServiceImpl add
INFO:  add method ishladi

нояб. 13, 2023 8:37:31 PM pdp.uz.football.service.ClubServiceImpl add
INFO:  add method ishladi

нояб. 13, 2023 8:37:31 PM pdp.uz.football.service.ClubServiceImpl add
INFO:  add method ishladi

нояб. 13, 2023 8:37:31 PM pdp.uz.football.service.ClubServiceImpl add
INFO:  add method ishladi

нояб. 13, 2023 8:37:31 PM pdp.uz.football.service.ClubServiceImpl add
INFO:  add method ishladi

нояб. 13, 2023 8:37:31 PM pdp.uz.football.service.ClubServiceImpl add
INFO:  add method ishladi

нояб. 13, 2023 8:37:31 PM pdp.uz.football.service.ClubServiceImpl add
INFO:  add method ishladi

нояб. 13, 2023 8:37:31 PM pdp.uz.football.service.ClubServiceImpl add
INFO:  add method ishladi

нояб. 13, 2023 8:37:31 PM pdp.uz.football.service.ClubServiceImpl add
INFO:  add method ishladi

нояб. 13, 2023 8:37:31 PM pdp.uz.football.service.ClubServiceImpl add
INFO:  add method ishladi

нояб. 13, 2023 8:37:31 PM pdp.uz.football.service.ClubServiceImpl add
INFO:  add method ishladi

нояб. 13, 2023 8:37:31 PM pdp.uz.football.service.ClubServiceImpl add
INFO:  add method ishladi

нояб. 13, 2023 8:37:31 PM pdp.uz.football.service.ClubServiceImpl add
INFO:  add method ishladi

нояб. 13, 2023 8:37:31 PM pdp.uz.football.service.ClubServiceImpl add
INFO:  add method ishladi

нояб. 13, 2023 8:37:31 PM pdp.uz.football.service.ClubServiceImpl add
INFO:  add method ishladi

нояб. 13, 2023 8:37:31 PM pdp.uz.football.service.ClubServiceImpl add
INFO:  add method ishladi

нояб. 13, 2023 8:37:31 PM pdp.uz.football.service.ClubServiceImpl add
INFO:  add method ishladi

нояб. 13, 2023 8:37:31 PM pdp.uz.football.service.ClubServiceImpl add
INFO:  add method ishladi

нояб. 13, 2023 8:37:31 PM pdp.uz.football.service.ClubServiceImpl add
INFO:  add method ishladi

нояб. 13, 2023 8:37:31 PM pdp.uz.football.service.ClubServiceImpl add
INFO:  add method ishladi

нояб. 13, 2023 8:37:31 PM pdp.uz.football.service.ClubServiceImpl add
INFO:  add method ishladi

нояб. 13, 2023 8:39:15 PM pdp.uz.football.service.ClubServiceImpl add
INFO:  add method ishladi

нояб. 13, 2023 8:39:15 PM pdp.uz.football.service.ClubServiceImpl add
INFO:  add method ishladi

нояб. 13, 2023 8:39:15 PM pdp.uz.football.service.ClubServiceImpl add
INFO:  add method ishladi

нояб. 13, 2023 8:39:15 PM pdp.uz.football.service.ClubServiceImpl add
INFO:  add method ishladi

нояб. 13, 2023 8:39:15 PM pdp.uz.football.service.ClubServiceImpl add
INFO:  add method ishladi

нояб. 13, 2023 8:39:15 PM pdp.uz.football.service.ClubServiceImpl add
INFO:  add method ishladi

нояб. 13, 2023 8:39:15 PM pdp.uz.football.service.ClubServiceImpl add
INFO:  add method ishladi

нояб. 13, 2023 8:39:15 PM pdp.uz.football.service.ClubServiceImpl add
INFO:  add method ishladi

нояб. 13, 2023 8:39:15 PM pdp.uz.football.service.ClubServiceImpl add
INFO:  add method ishladi

нояб. 13, 2023 8:39:15 PM pdp.uz.football.service.ClubServiceImpl add
INFO:  add method ishladi

нояб. 13, 2023 8:39:15 PM pdp.uz.football.service.ClubServiceImpl add
INFO:  add method ishladi

нояб. 13, 2023 8:39:15 PM pdp.uz.football.service.ClubServiceImpl add
INFO:  add method ishladi

нояб. 13, 2023 8:39:15 PM pdp.uz.football.service.ClubServiceImpl add
INFO:  add method ishladi

нояб. 13, 2023 8:39:15 PM pdp.uz.football.service.ClubServiceImpl add
INFO:  add method ishladi

нояб. 13, 2023 8:39:15 PM pdp.uz.football.service.ClubServiceImpl add
INFO:  add method ishladi

нояб. 13, 2023 8:39:15 PM pdp.uz.football.service.ClubServiceImpl add
INFO:  add method ishladi

нояб. 13, 2023 8:39:15 PM pdp.uz.football.service.ClubServiceImpl add
INFO:  add method ishladi

нояб. 13, 2023 8:39:15 PM pdp.uz.football.service.ClubServiceImpl add
INFO:  add method ishladi

нояб. 13, 2023 8:39:15 PM pdp.uz.football.service.ClubServiceImpl add
INFO:  add method ishladi

нояб. 13, 2023 8:39:15 PM pdp.uz.football.service.ClubServiceImpl add
INFO:  add method ishladi

нояб. 13, 2023 8:39:15 PM pdp.uz.football.service.ClubServiceImpl add
INFO:  add method ishladi

нояб. 13, 2023 8:39:15 PM pdp.uz.football.service.ClubServiceImpl add
INFO:  add method ishladi

нояб. 13, 2023 8:39:15 PM pdp.uz.football.service.ClubServiceImpl add
INFO:  add method ishladi

нояб. 13, 2023 8:39:15 PM pdp.uz.football.service.ClubServiceImpl add
INFO:  add method ishladi

нояб. 13, 2023 8:39:15 PM pdp.uz.football.service.ClubServiceImpl add
INFO:  add method ishladi

нояб. 13, 2023 8:39:15 PM pdp.uz.football.service.ClubServiceImpl add
INFO:  add method ishladi

нояб. 13, 2023 8:39:15 PM pdp.uz.football.service.ClubServiceImpl add
INFO:  add method ishladi

нояб. 13, 2023 8:39:15 PM pdp.uz.football.service.ClubServiceImpl add
INFO:  add method ishladi

нояб. 13, 2023 8:39:15 PM pdp.uz.football.service.ClubServiceImpl add
INFO:  add method ishladi

нояб. 13, 2023 8:39:15 PM pdp.uz.football.service.ClubServiceImpl add
INFO:  add method ishladi

нояб. 13, 2023 8:39:15 PM pdp.uz.football.service.ClubServiceImpl add
INFO:  add method ishladi

нояб. 13, 2023 8:39:15 PM pdp.uz.football.service.ClubServiceImpl add
INFO:  add method ishladi

нояб. 13, 2023 8:39:15 PM pdp.uz.football.service.ClubServiceImpl add
INFO:  add method ishladi

нояб. 13, 2023 8:39:15 PM pdp.uz.football.service.ClubServiceImpl add
INFO:  add method ishladi

нояб. 13, 2023 8:39:15 PM pdp.uz.football.service.ClubServiceImpl add
INFO:  add method ishladi

нояб. 13, 2023 8:39:15 PM pdp.uz.football.service.ClubServiceImpl add
INFO:  add method ishladi

нояб. 13, 2023 8:39:15 PM pdp.uz.football.service.ClubServiceImpl add
INFO:  add method ishladi

нояб. 13, 2023 8:39:15 PM pdp.uz.football.service.ClubServiceImpl add
INFO:  add method ishladi

нояб. 13, 2023 8:39:15 PM pdp.uz.football.service.ClubServiceImpl add
INFO:  add method ishladi

нояб. 13, 2023 8:39:15 PM pdp.uz.football.service.ClubServiceImpl add
INFO:  add method ishladi

нояб. 13, 2023 8:39:15 PM pdp.uz.football.service.ClubServiceImpl add
INFO:  add method ishladi

нояб. 13, 2023 8:39:15 PM pdp.uz.football.service.ClubServiceImpl add
INFO:  add method ishladi

нояб. 13, 2023 8:39:15 PM pdp.uz.football.service.ClubServiceImpl add
INFO:  add method ishladi

нояб. 13, 2023 8:39:15 PM pdp.uz.football.service.ClubServiceImpl add
INFO:  add method ishladi

нояб. 13, 2023 8:39:15 PM pdp.uz.football.service.ClubServiceImpl add
INFO:  add method ishladi

нояб. 13, 2023 8:39:15 PM pdp.uz.football.service.ClubServiceImpl add
INFO:  add method ishladi

нояб. 13, 2023 8:39:15 PM pdp.uz.football.service.ClubServiceImpl add
INFO:  add method ishladi

нояб. 13, 2023 8:39:15 PM pdp.uz.football.service.ClubServiceImpl add
INFO:  add method ishladi

нояб. 13, 2023 8:39:15 PM pdp.uz.football.service.ClubServiceImpl add
INFO:  add method ishladi

нояб. 13, 2023 8:39:15 PM pdp.uz.football.service.ClubServiceImpl add
INFO:  add method ishladi

нояб. 13, 2023 8:39:15 PM pdp.uz.football.service.ClubServiceImpl add
INFO:  add method ishladi

нояб. 13, 2023 8:39:15 PM pdp.uz.football.service.ClubServiceImpl add
INFO:  add method ishladi

нояб. 13, 2023 8:39:15 PM pdp.uz.football.service.ClubServiceImpl add
INFO:  add method ishladi

нояб. 13, 2023 8:39:15 PM pdp.uz.football.service.ClubServiceImpl add
INFO:  add method ishladi

нояб. 13, 2023 8:39:15 PM pdp.uz.football.service.ClubServiceImpl add
INFO:  add method ishladi

нояб. 13, 2023 8:39:15 PM pdp.uz.football.service.ClubServiceImpl add
INFO:  add method ishladi

нояб. 13, 2023 8:39:15 PM pdp.uz.football.service.ClubServiceImpl add
INFO:  add method ishladi

нояб. 13, 2023 8:39:15 PM pdp.uz.football.service.ClubServiceImpl add
INFO:  add method ishladi

нояб. 13, 2023 8:39:15 PM pdp.uz.football.service.ClubServiceImpl add
INFO:  add method ishladi

нояб. 13, 2023 8:39:15 PM pdp.uz.football.service.ClubServiceImpl add
INFO:  add method ishladi

нояб. 13, 2023 8:39:15 PM pdp.uz.football.service.ClubServiceImpl add
INFO:  add method ishladi

нояб. 13, 2023 8:39:15 PM pdp.uz.football.service.ClubServiceImpl add
INFO:  add method ishladi

нояб. 13, 2023 8:39:15 PM pdp.uz.football.service.ClubServiceImpl add
INFO:  add method ishladi

нояб. 13, 2023 8:39:15 PM pdp.uz.football.service.ClubServiceImpl add
INFO:  add method ishladi

нояб. 13, 2023 8:39:15 PM pdp.uz.football.service.ClubServiceImpl add
INFO:  add method ishladi

нояб. 13, 2023 8:39:15 PM pdp.uz.football.service.ClubServiceImpl add
INFO:  add method ishladi

нояб. 13, 2023 8:39:15 PM pdp.uz.football.service.ClubServiceImpl add
INFO:  add method ishladi

нояб. 13, 2023 8:39:15 PM pdp.uz.football.service.ClubServiceImpl add
INFO:  add method ishladi

нояб. 13, 2023 8:39:15 PM pdp.uz.football.service.ClubServiceImpl add
INFO:  add method ishladi

нояб. 13, 2023 8:39:15 PM pdp.uz.football.service.ClubServiceImpl add
INFO:  add method ishladi

нояб. 13, 2023 8:39:15 PM pdp.uz.football.service.ClubServiceImpl add
INFO:  add method ishladi

нояб. 13, 2023 8:39:15 PM pdp.uz.football.service.ClubServiceImpl add
INFO:  add method ishladi

нояб. 13, 2023 8:39:15 PM pdp.uz.football.service.ClubServiceImpl add
INFO:  add method ishladi

нояб. 13, 2023 8:39:15 PM pdp.uz.football.service.ClubServiceImpl add
INFO:  add method ishladi

нояб. 13, 2023 8:39:15 PM pdp.uz.football.service.ClubServiceImpl add
INFO:  add method ishladi

нояб. 13, 2023 8:39:15 PM pdp.uz.football.service.ClubServiceImpl add
INFO:  add method ishladi

нояб. 13, 2023 8:39:15 PM pdp.uz.football.service.ClubServiceImpl add
INFO:  add method ishladi

нояб. 13, 2023 8:39:15 PM pdp.uz.football.service.ClubServiceImpl add
INFO:  add method ishladi

нояб. 13, 2023 8:39:15 PM pdp.uz.football.service.ClubServiceImpl add
INFO:  add method ishladi

нояб. 13, 2023 8:39:15 PM pdp.uz.football.service.ClubServiceImpl add
INFO:  add method ishladi

нояб. 13, 2023 8:39:15 PM pdp.uz.football.service.ClubServiceImpl add
INFO:  add method ishladi

нояб. 13, 2023 8:39:15 PM pdp.uz.football.service.ClubServiceImpl add
INFO:  add method ishladi

нояб. 13, 2023 8:39:15 PM pdp.uz.football.service.ClubServiceImpl add
INFO:  add method ishladi

нояб. 13, 2023 8:39:15 PM pdp.uz.football.service.ClubServiceImpl add
INFO:  add method ishladi

нояб. 13, 2023 8:39:15 PM pdp.uz.football.service.ClubServiceImpl add
INFO:  add method ishladi

нояб. 13, 2023 8:39:15 PM pdp.uz.football.service.ClubServiceImpl add
INFO:  add method ishladi

нояб. 13, 2023 8:39:15 PM pdp.uz.football.service.ClubServiceImpl add
INFO:  add method ishladi

нояб. 13, 2023 8:39:15 PM pdp.uz.football.service.ClubServiceImpl add
INFO:  add method ishladi

нояб. 13, 2023 8:39:15 PM pdp.uz.football.service.ClubServiceImpl add
INFO:  add method ishladi

нояб. 13, 2023 8:39:15 PM pdp.uz.football.service.ClubServiceImpl add
INFO:  add method ishladi

нояб. 13, 2023 8:39:15 PM pdp.uz.football.service.ClubServiceImpl add
INFO:  add method ishladi

нояб. 13, 2023 8:39:15 PM pdp.uz.football.service.ClubServiceImpl add
INFO:  add method ishladi

нояб. 13, 2023 8:39:15 PM pdp.uz.football.service.ClubServiceImpl add
INFO:  add method ishladi

нояб. 13, 2023 8:39:15 PM pdp.uz.football.service.ClubServiceImpl add
INFO:  add method ishladi

нояб. 13, 2023 8:39:15 PM pdp.uz.football.service.ClubServiceImpl add
INFO:  add method ishladi

нояб. 13, 2023 8:39:15 PM pdp.uz.football.service.ClubServiceImpl add
INFO:  add method ishladi

нояб. 13, 2023 8:39:15 PM pdp.uz.football.service.ClubServiceImpl add
INFO:  add method ishladi

нояб. 13, 2023 8:39:15 PM pdp.uz.football.service.ClubServiceImpl add
INFO:  add method ishladi

нояб. 13, 2023 8:39:15 PM pdp.uz.football.service.ClubServiceImpl add
INFO:  add method ishladi

нояб. 13, 2023 8:39:15 PM pdp.uz.football.service.ClubServiceImpl add
INFO:  add method ishladi

нояб. 13, 2023 8:39:15 PM pdp.uz.football.service.ClubServiceImpl add
INFO:  add method ishladi

нояб. 13, 2023 8:39:15 PM pdp.uz.football.service.ClubServiceImpl add
INFO:  add method ishladi

нояб. 13, 2023 8:39:15 PM pdp.uz.football.service.ClubServiceImpl add
INFO:  add method ishladi

нояб. 13, 2023 8:39:15 PM pdp.uz.football.service.ClubServiceImpl add
INFO:  add method ishladi

нояб. 13, 2023 8:39:15 PM pdp.uz.football.service.ClubServiceImpl add
INFO:  add method ishladi

нояб. 13, 2023 8:39:15 PM pdp.uz.football.service.ClubServiceImpl add
INFO:  add method ishladi

нояб. 13, 2023 8:39:15 PM pdp.uz.football.service.ClubServiceImpl add
INFO:  add method ishladi

нояб. 13, 2023 8:39:15 PM pdp.uz.football.service.ClubServiceImpl add
INFO:  add method ishladi

нояб. 13, 2023 8:39:15 PM pdp.uz.football.service.ClubServiceImpl add
INFO:  add method ishladi

нояб. 13, 2023 8:39:15 PM pdp.uz.football.service.ClubServiceImpl add
INFO:  add method ishladi

нояб. 13, 2023 8:39:15 PM pdp.uz.football.service.ClubServiceImpl add
INFO:  add method ishladi

нояб. 13, 2023 8:39:15 PM pdp.uz.football.service.ClubServiceImpl add
INFO:  add method ishladi

нояб. 13, 2023 8:39:15 PM pdp.uz.football.service.ClubServiceImpl add
INFO:  add method ishladi

нояб. 13, 2023 8:39:15 PM pdp.uz.football.service.ClubServiceImpl add
INFO:  add method ishladi

нояб. 13, 2023 8:39:15 PM pdp.uz.football.service.ClubServiceImpl add
INFO:  add method ishladi

нояб. 13, 2023 8:39:15 PM pdp.uz.football.service.ClubServiceImpl add
INFO:  add method ishladi

нояб. 13, 2023 8:39:15 PM pdp.uz.football.service.ClubServiceImpl add
INFO:  add method ishladi

нояб. 13, 2023 8:39:15 PM pdp.uz.football.service.ClubServiceImpl add
INFO:  add method ishladi

нояб. 13, 2023 8:39:15 PM pdp.uz.football.service.ClubServiceImpl add
INFO:  add method ishladi

нояб. 13, 2023 8:39:15 PM pdp.uz.football.service.ClubServiceImpl add
INFO:  add method ishladi

нояб. 13, 2023 8:39:15 PM pdp.uz.football.service.ClubServiceImpl add
INFO:  add method ishladi

нояб. 13, 2023 8:39:15 PM pdp.uz.football.service.ClubServiceImpl add
INFO:  add method ishladi

нояб. 13, 2023 8:39:15 PM pdp.uz.football.service.ClubServiceImpl add
INFO:  add method ishladi

нояб. 13, 2023 8:39:15 PM pdp.uz.football.service.ClubServiceImpl add
INFO:  add method ishladi

нояб. 13, 2023 8:39:15 PM pdp.uz.football.service.ClubServiceImpl add
INFO:  add method ishladi

нояб. 13, 2023 8:39:15 PM pdp.uz.football.service.ClubServiceImpl add
INFO:  add method ishladi

нояб. 13, 2023 8:39:15 PM pdp.uz.football.service.ClubServiceImpl add
INFO:  add method ishladi

нояб. 13, 2023 8:39:15 PM pdp.uz.football.service.ClubServiceImpl add
INFO:  add method ishladi

нояб. 13, 2023 8:39:15 PM pdp.uz.football.service.ClubServiceImpl add
INFO:  add method ishladi

нояб. 13, 2023 8:39:15 PM pdp.uz.football.service.ClubServiceImpl add
INFO:  add method ishladi

нояб. 13, 2023 8:39:15 PM pdp.uz.football.service.ClubServiceImpl add
INFO:  add method ishladi

нояб. 13, 2023 8:39:15 PM pdp.uz.football.service.ClubServiceImpl add
INFO:  add method ishladi

нояб. 13, 2023 8:39:16 PM pdp.uz.football.service.ClubServiceImpl add
INFO:  add method ishladi

нояб. 13, 2023 8:39:16 PM pdp.uz.football.service.ClubServiceImpl add
INFO:  add method ishladi

нояб. 13, 2023 8:39:16 PM pdp.uz.football.service.ClubServiceImpl add
INFO:  add method ishladi

нояб. 13, 2023 8:39:16 PM pdp.uz.football.service.ClubServiceImpl add
INFO:  add method ishladi

нояб. 13, 2023 8:39:16 PM pdp.uz.football.service.ClubServiceImpl add
INFO:  add method ishladi

нояб. 13, 2023 8:39:16 PM pdp.uz.football.service.ClubServiceImpl add
INFO:  add method ishladi

нояб. 13, 2023 8:39:16 PM pdp.uz.football.service.ClubServiceImpl add
INFO:  add method ishladi

нояб. 13, 2023 8:39:16 PM pdp.uz.football.service.ClubServiceImpl add
INFO:  add method ishladi

нояб. 13, 2023 8:39:16 PM pdp.uz.football.service.ClubServiceImpl add
INFO:  add method ishladi

нояб. 13, 2023 8:39:16 PM pdp.uz.football.service.ClubServiceImpl add
INFO:  add method ishladi

нояб. 13, 2023 8:39:16 PM pdp.uz.football.service.ClubServiceImpl add
INFO:  add method ishladi

нояб. 13, 2023 8:39:16 PM pdp.uz.football.service.ClubServiceImpl add
INFO:  add method ishladi

нояб. 13, 2023 8:39:16 PM pdp.uz.football.service.ClubServiceImpl add
INFO:  add method ishladi

нояб. 13, 2023 8:39:16 PM pdp.uz.football.service.ClubServiceImpl add
INFO:  add method ishladi

нояб. 13, 2023 8:39:16 PM pdp.uz.football.service.ClubServiceImpl add
INFO:  add method ishladi

нояб. 13, 2023 8:39:16 PM pdp.uz.football.service.ClubServiceImpl add
INFO:  add method ishladi

нояб. 13, 2023 8:39:16 PM pdp.uz.football.service.ClubServiceImpl add
INFO:  add method ishladi

нояб. 13, 2023 8:39:16 PM pdp.uz.football.service.ClubServiceImpl add
INFO:  add method ishladi

нояб. 13, 2023 8:39:16 PM pdp.uz.football.service.ClubServiceImpl add
INFO:  add method ishladi

нояб. 13, 2023 8:39:16 PM pdp.uz.football.service.ClubServiceImpl add
INFO:  add method ishladi

нояб. 13, 2023 8:39:16 PM pdp.uz.football.service.ClubServiceImpl add
INFO:  add method ishladi

нояб. 13, 2023 8:39:16 PM pdp.uz.football.service.ClubServiceImpl add
INFO:  add method ishladi

нояб. 13, 2023 8:39:16 PM pdp.uz.football.service.ClubServiceImpl add
INFO:  add method ishladi

нояб. 13, 2023 8:39:16 PM pdp.uz.football.service.ClubServiceImpl add
INFO:  add method ishladi

нояб. 13, 2023 8:39:16 PM pdp.uz.football.service.ClubServiceImpl add
INFO:  add method ishladi

нояб. 13, 2023 8:39:16 PM pdp.uz.football.service.ClubServiceImpl add
INFO:  add method ishladi

нояб. 13, 2023 8:39:16 PM pdp.uz.football.service.ClubServiceImpl add
INFO:  add method ishladi

нояб. 13, 2023 8:39:16 PM pdp.uz.football.service.ClubServiceImpl add
INFO:  add method ishladi

нояб. 13, 2023 8:39:16 PM pdp.uz.football.service.ClubServiceImpl add
INFO:  add method ishladi

нояб. 13, 2023 8:39:16 PM pdp.uz.football.service.ClubServiceImpl add
INFO:  add method ishladi

нояб. 13, 2023 8:39:16 PM pdp.uz.football.service.ClubServiceImpl add
INFO:  add method ishladi

нояб. 13, 2023 8:39:16 PM pdp.uz.football.service.ClubServiceImpl add
INFO:  add method ishladi

нояб. 13, 2023 8:39:16 PM pdp.uz.football.service.ClubServiceImpl add
INFO:  add method ishladi

нояб. 13, 2023 8:39:16 PM pdp.uz.football.service.ClubServiceImpl add
INFO:  add method ishladi

нояб. 13, 2023 8:39:16 PM pdp.uz.football.service.ClubServiceImpl add
INFO:  add method ishladi

нояб. 13, 2023 8:39:16 PM pdp.uz.football.service.ClubServiceImpl add
INFO:  add method ishladi

нояб. 13, 2023 8:39:16 PM pdp.uz.football.service.ClubServiceImpl add
INFO:  add method ishladi

нояб. 13, 2023 8:39:16 PM pdp.uz.football.service.ClubServiceImpl add
INFO:  add method ishladi

нояб. 13, 2023 8:39:16 PM pdp.uz.football.service.ClubServiceImpl add
INFO:  add method ishladi

нояб. 13, 2023 8:39:16 PM pdp.uz.football.service.ClubServiceImpl add
INFO:  add method ishladi

нояб. 13, 2023 8:39:16 PM pdp.uz.football.service.ClubServiceImpl add
INFO:  add method ishladi

нояб. 13, 2023 8:39:16 PM pdp.uz.football.service.ClubServiceImpl add
INFO:  add method ishladi

нояб. 13, 2023 8:39:16 PM pdp.uz.football.service.ClubServiceImpl add
INFO:  add method ishladi

нояб. 13, 2023 8:39:16 PM pdp.uz.football.service.ClubServiceImpl add
INFO:  add method ishladi

нояб. 13, 2023 8:39:16 PM pdp.uz.football.service.ClubServiceImpl add
INFO:  add method ishladi

нояб. 13, 2023 8:39:16 PM pdp.uz.football.service.ClubServiceImpl add
INFO:  add method ishladi

нояб. 13, 2023 8:39:16 PM pdp.uz.football.service.ClubServiceImpl add
INFO:  add method ishladi

нояб. 13, 2023 8:39:16 PM pdp.uz.football.service.ClubServiceImpl add
INFO:  add method ishladi

нояб. 13, 2023 8:39:16 PM pdp.uz.football.service.ClubServiceImpl add
INFO:  add method ishladi

нояб. 13, 2023 8:39:16 PM pdp.uz.football.service.ClubServiceImpl add
INFO:  add method ishladi

нояб. 13, 2023 8:39:16 PM pdp.uz.football.service.ClubServiceImpl add
INFO:  add method ishladi

нояб. 13, 2023 8:39:16 PM pdp.uz.football.service.ClubServiceImpl add
INFO:  add method ishladi

нояб. 13, 2023 8:39:16 PM pdp.uz.football.service.ClubServiceImpl add
INFO:  add method ishladi

нояб. 13, 2023 8:39:16 PM pdp.uz.football.service.ClubServiceImpl add
INFO:  add method ishladi

нояб. 13, 2023 8:39:16 PM pdp.uz.football.service.ClubServiceImpl add
INFO:  add method ishladi

нояб. 13, 2023 8:39:16 PM pdp.uz.football.service.ClubServiceImpl add
INFO:  add method ishladi

нояб. 13, 2023 8:39:16 PM pdp.uz.football.service.ClubServiceImpl add
INFO:  add method ishladi

нояб. 13, 2023 8:39:16 PM pdp.uz.football.service.ClubServiceImpl add
INFO:  add method ishladi

нояб. 13, 2023 8:39:16 PM pdp.uz.football.service.ClubServiceImpl add
INFO:  add method ishladi

нояб. 13, 2023 8:39:16 PM pdp.uz.football.service.ClubServiceImpl add
INFO:  add method ishladi

нояб. 13, 2023 8:39:16 PM pdp.uz.football.service.ClubServiceImpl add
INFO:  add method ishladi

нояб. 13, 2023 8:39:16 PM pdp.uz.football.service.ClubServiceImpl add
INFO:  add method ishladi

нояб. 13, 2023 8:39:16 PM pdp.uz.football.service.ClubServiceImpl add
INFO:  add method ishladi

нояб. 13, 2023 8:39:16 PM pdp.uz.football.service.ClubServiceImpl add
INFO:  add method ishladi

нояб. 13, 2023 8:39:16 PM pdp.uz.football.service.ClubServiceImpl add
INFO:  add method ishladi

нояб. 13, 2023 8:39:16 PM pdp.uz.football.service.ClubServiceImpl add
INFO:  add method ishladi

нояб. 13, 2023 8:39:16 PM pdp.uz.football.service.ClubServiceImpl add
INFO:  add method ishladi

нояб. 13, 2023 8:39:16 PM pdp.uz.football.service.ClubServiceImpl add
INFO:  add method ishladi

нояб. 13, 2023 8:39:16 PM pdp.uz.football.service.ClubServiceImpl add
INFO:  add method ishladi

нояб. 13, 2023 8:39:16 PM pdp.uz.football.service.ClubServiceImpl add
INFO:  add method ishladi

нояб. 13, 2023 8:39:16 PM pdp.uz.football.service.ClubServiceImpl add
INFO:  add method ishladi

нояб. 13, 2023 8:39:16 PM pdp.uz.football.service.ClubServiceImpl add
INFO:  add method ishladi

нояб. 13, 2023 8:39:16 PM pdp.uz.football.service.ClubServiceImpl add
INFO:  add method ishladi

нояб. 13, 2023 8:39:16 PM pdp.uz.football.service.ClubServiceImpl add
INFO:  add method ishladi

нояб. 13, 2023 8:39:16 PM pdp.uz.football.service.ClubServiceImpl add
INFO:  add method ishladi

нояб. 13, 2023 8:39:16 PM pdp.uz.football.service.ClubServiceImpl add
INFO:  add method ishladi

нояб. 13, 2023 8:39:16 PM pdp.uz.football.service.ClubServiceImpl add
INFO:  add method ishladi

нояб. 13, 2023 8:39:16 PM pdp.uz.football.service.ClubServiceImpl add
INFO:  add method ishladi

нояб. 13, 2023 8:39:16 PM pdp.uz.football.service.ClubServiceImpl add
INFO:  add method ishladi

нояб. 13, 2023 8:39:16 PM pdp.uz.football.service.ClubServiceImpl add
INFO:  add method ishladi

нояб. 13, 2023 8:39:16 PM pdp.uz.football.service.ClubServiceImpl add
INFO:  add method ishladi

нояб. 13, 2023 8:39:16 PM pdp.uz.football.service.ClubServiceImpl add
INFO:  add method ishladi

нояб. 13, 2023 8:39:16 PM pdp.uz.football.service.ClubServiceImpl add
INFO:  add method ishladi

нояб. 13, 2023 8:39:16 PM pdp.uz.football.service.ClubServiceImpl add
INFO:  add method ishladi

нояб. 13, 2023 8:39:16 PM pdp.uz.football.service.ClubServiceImpl add
INFO:  add method ishladi

нояб. 13, 2023 8:39:16 PM pdp.uz.football.service.ClubServiceImpl add
INFO:  add method ishladi

нояб. 13, 2023 8:39:16 PM pdp.uz.football.service.ClubServiceImpl add
INFO:  add method ishladi

нояб. 13, 2023 8:39:16 PM pdp.uz.football.service.ClubServiceImpl add
INFO:  add method ishladi

нояб. 13, 2023 8:39:16 PM pdp.uz.football.service.ClubServiceImpl add
INFO:  add method ishladi

нояб. 13, 2023 8:39:16 PM pdp.uz.football.service.ClubServiceImpl add
INFO:  add method ishladi

нояб. 13, 2023 8:39:16 PM pdp.uz.football.service.ClubServiceImpl add
INFO:  add method ishladi

нояб. 13, 2023 8:39:16 PM pdp.uz.football.service.ClubServiceImpl add
INFO:  add method ishladi

нояб. 13, 2023 8:39:16 PM pdp.uz.football.service.ClubServiceImpl add
INFO:  add method ishladi

нояб. 13, 2023 8:39:16 PM pdp.uz.football.service.ClubServiceImpl add
INFO:  add method ishladi

нояб. 13, 2023 8:39:16 PM pdp.uz.football.service.ClubServiceImpl add
INFO:  add method ishladi

нояб. 13, 2023 8:39:16 PM pdp.uz.football.service.ClubServiceImpl add
INFO:  add method ishladi

нояб. 13, 2023 8:39:16 PM pdp.uz.football.service.ClubServiceImpl add
INFO:  add method ishladi

нояб. 13, 2023 8:39:16 PM pdp.uz.football.service.ClubServiceImpl add
INFO:  add method ishladi

нояб. 13, 2023 8:39:16 PM pdp.uz.football.service.ClubServiceImpl add
INFO:  add method ishladi

нояб. 13, 2023 8:39:16 PM pdp.uz.football.service.ClubServiceImpl add
INFO:  add method ishladi

нояб. 13, 2023 8:39:16 PM pdp.uz.football.service.ClubServiceImpl add
INFO:  add method ishladi

нояб. 13, 2023 8:39:16 PM pdp.uz.football.service.ClubServiceImpl add
INFO:  add method ishladi

нояб. 13, 2023 8:39:16 PM pdp.uz.football.service.ClubServiceImpl add
INFO:  add method ishladi

нояб. 13, 2023 8:39:16 PM pdp.uz.football.service.ClubServiceImpl add
INFO:  add method ishladi

нояб. 13, 2023 8:39:16 PM pdp.uz.football.service.ClubServiceImpl add
INFO:  add method ishladi

нояб. 13, 2023 8:39:16 PM pdp.uz.football.service.ClubServiceImpl add
INFO:  add method ishladi

нояб. 13, 2023 8:39:16 PM pdp.uz.football.service.ClubServiceImpl add
INFO:  add method ishladi

нояб. 13, 2023 8:39:16 PM pdp.uz.football.service.ClubServiceImpl add
INFO:  add method ishladi

нояб. 13, 2023 8:39:16 PM pdp.uz.football.service.ClubServiceImpl add
INFO:  add method ishladi

нояб. 13, 2023 8:39:16 PM pdp.uz.football.service.ClubServiceImpl add
INFO:  add method ishladi

нояб. 13, 2023 8:39:16 PM pdp.uz.football.service.ClubServiceImpl add
INFO:  add method ishladi

нояб. 13, 2023 8:39:16 PM pdp.uz.football.service.ClubServiceImpl add
INFO:  add method ishladi

нояб. 13, 2023 8:39:16 PM pdp.uz.football.service.ClubServiceImpl add
INFO:  add method ishladi

нояб. 13, 2023 8:39:16 PM pdp.uz.football.service.ClubServiceImpl add
INFO:  add method ishladi

нояб. 13, 2023 8:39:16 PM pdp.uz.football.service.ClubServiceImpl add
INFO:  add method ishladi

нояб. 13, 2023 8:39:16 PM pdp.uz.football.service.ClubServiceImpl add
INFO:  add method ishladi

нояб. 13, 2023 8:39:16 PM pdp.uz.football.service.ClubServiceImpl add
INFO:  add method ishladi

нояб. 13, 2023 8:39:16 PM pdp.uz.football.service.ClubServiceImpl add
INFO:  add method ishladi

нояб. 13, 2023 8:39:16 PM pdp.uz.football.service.ClubServiceImpl add
INFO:  add method ishladi

нояб. 13, 2023 8:39:16 PM pdp.uz.football.service.ClubServiceImpl add
INFO:  add method ishladi

нояб. 13, 2023 8:39:16 PM pdp.uz.football.service.ClubServiceImpl add
INFO:  add method ishladi

нояб. 13, 2023 8:39:16 PM pdp.uz.football.service.ClubServiceImpl add
INFO:  add method ishladi

нояб. 13, 2023 8:39:16 PM pdp.uz.football.service.ClubServiceImpl add
INFO:  add method ishladi

нояб. 13, 2023 8:39:16 PM pdp.uz.football.service.ClubServiceImpl add
INFO:  add method ishladi

нояб. 13, 2023 8:39:16 PM pdp.uz.football.service.ClubServiceImpl add
INFO:  add method ishladi

нояб. 13, 2023 8:39:16 PM pdp.uz.football.service.ClubServiceImpl add
INFO:  add method ishladi

нояб. 13, 2023 8:39:16 PM pdp.uz.football.service.ClubServiceImpl add
INFO:  add method ishladi

нояб. 13, 2023 8:39:16 PM pdp.uz.football.service.ClubServiceImpl add
INFO:  add method ishladi

нояб. 13, 2023 8:39:16 PM pdp.uz.football.service.ClubServiceImpl add
INFO:  add method ishladi

нояб. 13, 2023 8:39:16 PM pdp.uz.football.service.ClubServiceImpl add
INFO:  add method ishladi

нояб. 13, 2023 8:39:16 PM pdp.uz.football.service.ClubServiceImpl add
INFO:  add method ishladi

нояб. 13, 2023 8:39:16 PM pdp.uz.football.service.ClubServiceImpl add
INFO:  add method ishladi

нояб. 13, 2023 8:39:16 PM pdp.uz.football.service.ClubServiceImpl add
INFO:  add method ishladi

нояб. 13, 2023 8:39:16 PM pdp.uz.football.service.ClubServiceImpl add
INFO:  add method ishladi

нояб. 13, 2023 8:39:16 PM pdp.uz.football.service.ClubServiceImpl add
INFO:  add method ishladi

нояб. 13, 2023 8:39:16 PM pdp.uz.football.service.ClubServiceImpl add
INFO:  add method ishladi

нояб. 13, 2023 8:39:16 PM pdp.uz.football.service.ClubServiceImpl add
INFO:  add method ishladi

нояб. 13, 2023 8:39:16 PM pdp.uz.football.service.ClubServiceImpl add
INFO:  add method ishladi

нояб. 13, 2023 8:39:16 PM pdp.uz.football.service.ClubServiceImpl add
INFO:  add method ishladi

нояб. 13, 2023 8:39:16 PM pdp.uz.football.service.ClubServiceImpl add
INFO:  add method ishladi

нояб. 13, 2023 8:39:16 PM pdp.uz.football.service.ClubServiceImpl add
INFO:  add method ishladi

нояб. 13, 2023 8:39:16 PM pdp.uz.football.service.ClubServiceImpl add
INFO:  add method ishladi

нояб. 13, 2023 8:39:16 PM pdp.uz.football.service.ClubServiceImpl add
INFO:  add method ishladi

нояб. 13, 2023 8:39:16 PM pdp.uz.football.service.ClubServiceImpl add
INFO:  add method ishladi

нояб. 13, 2023 8:39:16 PM pdp.uz.football.service.ClubServiceImpl add
INFO:  add method ishladi

нояб. 13, 2023 8:39:16 PM pdp.uz.football.service.ClubServiceImpl add
INFO:  add method ishladi

нояб. 13, 2023 8:39:16 PM pdp.uz.football.service.ClubServiceImpl add
INFO:  add method ishladi

нояб. 13, 2023 8:39:16 PM pdp.uz.football.service.ClubServiceImpl add
INFO:  add method ishladi

нояб. 13, 2023 8:39:16 PM pdp.uz.football.service.ClubServiceImpl add
INFO:  add method ishladi

нояб. 13, 2023 8:39:16 PM pdp.uz.football.service.ClubServiceImpl add
INFO:  add method ishladi

нояб. 13, 2023 8:39:16 PM pdp.uz.football.service.ClubServiceImpl add
INFO:  add method ishladi

нояб. 13, 2023 8:39:16 PM pdp.uz.football.service.ClubServiceImpl add
INFO:  add method ishladi

нояб. 13, 2023 8:39:16 PM pdp.uz.football.service.ClubServiceImpl add
INFO:  add method ishladi

нояб. 13, 2023 8:39:16 PM pdp.uz.football.service.ClubServiceImpl add
INFO:  add method ishladi

нояб. 13, 2023 8:39:16 PM pdp.uz.football.service.ClubServiceImpl add
INFO:  add method ishladi

нояб. 13, 2023 8:39:16 PM pdp.uz.football.service.ClubServiceImpl add
INFO:  add method ishladi

нояб. 13, 2023 8:39:16 PM pdp.uz.football.service.ClubServiceImpl add
INFO:  add method ishladi

нояб. 13, 2023 8:39:16 PM pdp.uz.football.service.ClubServiceImpl add
INFO:  add method ishladi

нояб. 13, 2023 8:39:16 PM pdp.uz.football.service.ClubServiceImpl add
INFO:  add method ishladi

нояб. 13, 2023 8:39:16 PM pdp.uz.football.service.ClubServiceImpl add
INFO:  add method ishladi

нояб. 13, 2023 8:39:16 PM pdp.uz.football.service.ClubServiceImpl add
INFO:  add method ishladi

нояб. 13, 2023 8:39:16 PM pdp.uz.football.service.ClubServiceImpl add
INFO:  add method ishladi

нояб. 13, 2023 8:39:16 PM pdp.uz.football.service.ClubServiceImpl add
INFO:  add method ishladi

нояб. 13, 2023 8:39:16 PM pdp.uz.football.service.ClubServiceImpl add
INFO:  add method ishladi

нояб. 13, 2023 8:39:16 PM pdp.uz.football.service.ClubServiceImpl add
INFO:  add method ishladi

нояб. 13, 2023 8:39:16 PM pdp.uz.football.service.ClubServiceImpl add
INFO:  add method ishladi

нояб. 13, 2023 8:39:16 PM pdp.uz.football.service.ClubServiceImpl add
INFO:  add method ishladi

нояб. 13, 2023 8:39:16 PM pdp.uz.football.service.ClubServiceImpl add
INFO:  add method ishladi

нояб. 13, 2023 8:39:16 PM pdp.uz.football.service.ClubServiceImpl add
INFO:  add method ishladi

нояб. 13, 2023 8:39:16 PM pdp.uz.football.service.ClubServiceImpl add
INFO:  add method ishladi

нояб. 13, 2023 8:39:16 PM pdp.uz.football.service.ClubServiceImpl add
INFO:  add method ishladi

нояб. 13, 2023 8:39:16 PM pdp.uz.football.service.ClubServiceImpl add
INFO:  add method ishladi

нояб. 13, 2023 8:39:16 PM pdp.uz.football.service.ClubServiceImpl add
INFO:  add method ishladi

нояб. 13, 2023 8:39:16 PM pdp.uz.football.service.ClubServiceImpl add
INFO:  add method ishladi

нояб. 13, 2023 8:39:16 PM pdp.uz.football.service.ClubServiceImpl add
INFO:  add method ishladi

нояб. 13, 2023 8:39:16 PM pdp.uz.football.service.ClubServiceImpl add
INFO:  add method ishladi

нояб. 13, 2023 8:39:16 PM pdp.uz.football.service.ClubServiceImpl add
INFO:  add method ishladi

нояб. 13, 2023 8:39:16 PM pdp.uz.football.service.ClubServiceImpl add
INFO:  add method ishladi

нояб. 13, 2023 8:39:16 PM pdp.uz.football.service.ClubServiceImpl add
INFO:  add method ishladi

нояб. 13, 2023 8:39:16 PM pdp.uz.football.service.ClubServiceImpl add
INFO:  add method ishladi

нояб. 13, 2023 8:39:16 PM pdp.uz.football.service.ClubServiceImpl add
INFO:  add method ishladi

нояб. 13, 2023 8:39:16 PM pdp.uz.football.service.ClubServiceImpl add
INFO:  add method ishladi

нояб. 13, 2023 8:39:16 PM pdp.uz.football.service.ClubServiceImpl add
INFO:  add method ishladi

нояб. 13, 2023 8:39:16 PM pdp.uz.football.service.ClubServiceImpl add
INFO:  add method ishladi

нояб. 13, 2023 8:39:16 PM pdp.uz.football.service.ClubServiceImpl add
INFO:  add method ishladi

нояб. 13, 2023 8:39:16 PM pdp.uz.football.service.ClubServiceImpl add
INFO:  add method ishladi

нояб. 13, 2023 8:39:16 PM pdp.uz.football.service.ClubServiceImpl add
INFO:  add method ishladi

нояб. 13, 2023 8:39:16 PM pdp.uz.football.service.ClubServiceImpl add
INFO:  add method ishladi

нояб. 13, 2023 8:39:16 PM pdp.uz.football.service.ClubServiceImpl add
INFO:  add method ishladi

нояб. 13, 2023 8:39:16 PM pdp.uz.football.service.ClubServiceImpl add
INFO:  add method ishladi

нояб. 13, 2023 8:39:16 PM pdp.uz.football.service.ClubServiceImpl add
INFO:  add method ishladi

нояб. 13, 2023 8:39:16 PM pdp.uz.football.service.ClubServiceImpl add
INFO:  add method ishladi

нояб. 13, 2023 8:39:16 PM pdp.uz.football.service.ClubServiceImpl add
INFO:  add method ishladi

нояб. 13, 2023 8:39:16 PM pdp.uz.football.service.ClubServiceImpl add
INFO:  add method ishladi

нояб. 13, 2023 8:39:16 PM pdp.uz.football.service.ClubServiceImpl add
INFO:  add method ishladi

нояб. 13, 2023 8:39:16 PM pdp.uz.football.service.ClubServiceImpl add
INFO:  add method ishladi

нояб. 13, 2023 8:39:16 PM pdp.uz.football.service.ClubServiceImpl add
INFO:  add method ishladi

нояб. 13, 2023 8:39:16 PM pdp.uz.football.service.ClubServiceImpl add
INFO:  add method ishladi

нояб. 13, 2023 8:39:16 PM pdp.uz.football.service.ClubServiceImpl add
INFO:  add method ishladi

нояб. 13, 2023 8:39:16 PM pdp.uz.football.service.ClubServiceImpl add
INFO:  add method ishladi

нояб. 13, 2023 8:39:16 PM pdp.uz.football.service.ClubServiceImpl add
INFO:  add method ishladi

нояб. 13, 2023 8:39:16 PM pdp.uz.football.service.ClubServiceImpl add
INFO:  add method ishladi

нояб. 13, 2023 8:39:16 PM pdp.uz.football.service.ClubServiceImpl add
INFO:  add method ishladi

нояб. 13, 2023 8:39:16 PM pdp.uz.football.service.ClubServiceImpl add
INFO:  add method ishladi

нояб. 13, 2023 8:39:16 PM pdp.uz.football.service.ClubServiceImpl add
INFO:  add method ishladi

нояб. 13, 2023 8:39:16 PM pdp.uz.football.service.ClubServiceImpl add
INFO:  add method ishladi

нояб. 13, 2023 8:39:16 PM pdp.uz.football.service.ClubServiceImpl add
INFO:  add method ishladi

нояб. 13, 2023 8:39:16 PM pdp.uz.football.service.ClubServiceImpl add
INFO:  add method ishladi

нояб. 13, 2023 8:39:16 PM pdp.uz.football.service.ClubServiceImpl add
INFO:  add method ishladi

нояб. 13, 2023 8:39:16 PM pdp.uz.football.service.ClubServiceImpl add
INFO:  add method ishladi

нояб. 13, 2023 8:39:16 PM pdp.uz.football.service.ClubServiceImpl add
INFO:  add method ishladi

нояб. 13, 2023 8:39:16 PM pdp.uz.football.service.ClubServiceImpl add
INFO:  add method ishladi

нояб. 13, 2023 8:39:16 PM pdp.uz.football.service.ClubServiceImpl add
INFO:  add method ishladi

нояб. 13, 2023 8:39:16 PM pdp.uz.football.service.ClubServiceImpl add
INFO:  add method ishladi

нояб. 13, 2023 8:39:16 PM pdp.uz.football.service.ClubServiceImpl add
INFO:  add method ishladi

нояб. 13, 2023 8:39:16 PM pdp.uz.football.service.ClubServiceImpl add
INFO:  add method ishladi

нояб. 13, 2023 8:39:16 PM pdp.uz.football.service.ClubServiceImpl add
INFO:  add method ishladi

нояб. 13, 2023 8:39:16 PM pdp.uz.football.service.ClubServiceImpl add
INFO:  add method ishladi

нояб. 13, 2023 8:39:16 PM pdp.uz.football.service.ClubServiceImpl add
INFO:  add method ishladi

нояб. 13, 2023 8:39:16 PM pdp.uz.football.service.ClubServiceImpl add
INFO:  add method ishladi

нояб. 13, 2023 8:39:16 PM pdp.uz.football.service.ClubServiceImpl add
INFO:  add method ishladi

нояб. 13, 2023 8:39:16 PM pdp.uz.football.service.ClubServiceImpl add
INFO:  add method ishladi

нояб. 13, 2023 8:39:16 PM pdp.uz.football.service.ClubServiceImpl add
INFO:  add method ishladi

нояб. 13, 2023 8:39:16 PM pdp.uz.football.service.ClubServiceImpl add
INFO:  add method ishladi

нояб. 13, 2023 8:39:16 PM pdp.uz.football.service.ClubServiceImpl add
INFO:  add method ishladi

нояб. 13, 2023 8:39:16 PM pdp.uz.football.service.ClubServiceImpl add
INFO:  add method ishladi

нояб. 13, 2023 8:39:16 PM pdp.uz.football.service.ClubServiceImpl add
INFO:  add method ishladi

нояб. 13, 2023 8:39:16 PM pdp.uz.football.service.ClubServiceImpl add
INFO:  add method ishladi

нояб. 13, 2023 8:39:16 PM pdp.uz.football.service.ClubServiceImpl add
INFO:  add method ishladi

нояб. 13, 2023 8:39:16 PM pdp.uz.football.service.ClubServiceImpl add
INFO:  add method ishladi

нояб. 13, 2023 8:39:16 PM pdp.uz.football.service.ClubServiceImpl add
INFO:  add method ishladi

нояб. 13, 2023 8:39:16 PM pdp.uz.football.service.ClubServiceImpl add
INFO:  add method ishladi

нояб. 13, 2023 8:39:16 PM pdp.uz.football.service.ClubServiceImpl add
INFO:  add method ishladi

нояб. 13, 2023 8:39:16 PM pdp.uz.football.service.ClubServiceImpl add
INFO:  add method ishladi

нояб. 13, 2023 8:39:16 PM pdp.uz.football.service.ClubServiceImpl add
INFO:  add method ishladi

нояб. 13, 2023 8:39:16 PM pdp.uz.football.service.ClubServiceImpl add
INFO:  add method ishladi

нояб. 13, 2023 8:39:16 PM pdp.uz.football.service.ClubServiceImpl add
INFO:  add method ishladi

нояб. 13, 2023 8:39:16 PM pdp.uz.football.service.ClubServiceImpl add
INFO:  add method ishladi

нояб. 13, 2023 8:39:16 PM pdp.uz.football.service.ClubServiceImpl add
INFO:  add method ishladi

нояб. 13, 2023 8:39:16 PM pdp.uz.football.service.ClubServiceImpl add
INFO:  add method ishladi

нояб. 13, 2023 8:39:16 PM pdp.uz.football.service.ClubServiceImpl add
INFO:  add method ishladi

нояб. 13, 2023 8:39:16 PM pdp.uz.football.service.ClubServiceImpl add
INFO:  add method ishladi

нояб. 13, 2023 8:39:16 PM pdp.uz.football.service.ClubServiceImpl add
INFO:  add method ishladi

нояб. 13, 2023 8:39:16 PM pdp.uz.football.service.ClubServiceImpl add
INFO:  add method ishladi

нояб. 13, 2023 8:39:16 PM pdp.uz.football.service.ClubServiceImpl add
INFO:  add method ishladi

нояб. 13, 2023 8:39:16 PM pdp.uz.football.service.ClubServiceImpl add
INFO:  add method ishladi

нояб. 13, 2023 8:39:16 PM pdp.uz.football.service.ClubServiceImpl add
INFO:  add method ishladi

нояб. 13, 2023 8:39:16 PM pdp.uz.football.service.ClubServiceImpl add
INFO:  add method ishladi

нояб. 13, 2023 8:39:16 PM pdp.uz.football.service.ClubServiceImpl add
INFO:  add method ishladi

нояб. 13, 2023 8:39:16 PM pdp.uz.football.service.ClubServiceImpl add
INFO:  add method ishladi

нояб. 13, 2023 8:39:16 PM pdp.uz.football.service.ClubServiceImpl add
INFO:  add method ishladi

нояб. 13, 2023 8:39:16 PM pdp.uz.football.service.ClubServiceImpl add
INFO:  add method ishladi

нояб. 13, 2023 8:39:16 PM pdp.uz.football.service.ClubServiceImpl add
INFO:  add method ishladi

нояб. 13, 2023 8:39:16 PM pdp.uz.football.service.ClubServiceImpl add
INFO:  add method ishladi

нояб. 13, 2023 8:39:16 PM pdp.uz.football.service.ClubServiceImpl add
INFO:  add method ishladi

нояб. 13, 2023 8:39:16 PM pdp.uz.football.service.ClubServiceImpl add
INFO:  add method ishladi

нояб. 13, 2023 8:39:16 PM pdp.uz.football.service.ClubServiceImpl add
INFO:  add method ishladi

нояб. 13, 2023 8:39:16 PM pdp.uz.football.service.ClubServiceImpl add
INFO:  add method ishladi

нояб. 13, 2023 8:39:16 PM pdp.uz.football.service.ClubServiceImpl add
INFO:  add method ishladi

нояб. 13, 2023 8:39:16 PM pdp.uz.football.service.ClubServiceImpl add
INFO:  add method ishladi

нояб. 13, 2023 8:39:16 PM pdp.uz.football.service.ClubServiceImpl add
INFO:  add method ishladi

нояб. 13, 2023 8:39:16 PM pdp.uz.football.service.ClubServiceImpl add
INFO:  add method ishladi

нояб. 13, 2023 8:39:16 PM pdp.uz.football.service.ClubServiceImpl add
INFO:  add method ishladi

нояб. 13, 2023 8:39:16 PM pdp.uz.football.service.ClubServiceImpl add
INFO:  add method ishladi

нояб. 13, 2023 8:39:16 PM pdp.uz.football.service.ClubServiceImpl add
INFO:  add method ishladi

нояб. 13, 2023 8:39:16 PM pdp.uz.football.service.ClubServiceImpl add
INFO:  add method ishladi

нояб. 13, 2023 8:39:16 PM pdp.uz.football.service.ClubServiceImpl add
INFO:  add method ishladi

нояб. 13, 2023 8:39:16 PM pdp.uz.football.service.ClubServiceImpl add
INFO:  add method ishladi

нояб. 13, 2023 9:07:40 PM pdp.uz.football.service.ClubServiceImpl getByClubID
INFO:  id boyicha club olinish bajarildi

нояб. 13, 2023 9:07:40 PM pdp.uz.football.service.ClubServiceImpl delete
INFO:  delete method ishladi

нояб. 13, 2023 9:07:40 PM pdp.uz.football.service.ClubServiceImpl readByPath
INFO:  readByPath methodi togri ishladi

нояб. 13, 2023 9:10:55 PM pdp.uz.football.service.ClubServiceImpl getByClubID
INFO:  id boyicha club olinish bajarildi

нояб. 13, 2023 9:10:55 PM pdp.uz.football.service.ClubServiceImpl delete
INFO:  delete method ishladi

нояб. 13, 2023 9:10:55 PM pdp.uz.football.service.ClubServiceImpl readByPath
INFO:  readByPath methodi togri ishladi

нояб. 13, 2023 9:10:55 PM pdp.uz.football.service.ClubServiceImpl update
INFO:  update method ishladi

нояб. 13, 2023 9:10:55 PM pdp.uz.football.service.ClubServiceImpl getByClubID
INFO:  id boyicha club olinish bajarildi

